Division,WeightClassKg,Place,Name,Team,BodyweightKg,Best3SquatKg,Best3BenchKg,Best3DeadliftKg,TotalKg,Equipment,Event,Sex
Boys,52,1,Ezekiel Eldridge,Katy Taylor,48.99,120.2,70.31,131.54,322.05,Single-ply,SBD,M
Boys,52,2,Shiloh George,Navasota,50.89,122.47,70.31,129.27,322.05,Single-ply,SBD,M
Boys,52,3,Jerry Moody,Bryan,51.53,86.18,56.7,113.4,256.28,Single-ply,SBD,M
Boys,52,4,Bryce Roundtree,Madisonville,47.99,97.52,56.7,95.25,249.48,Single-ply,SBD,M
Boys,52,5,Terrence Williams,Bryan Rudder,44.72,61.23,47.63,81.65,190.51,Single-ply,SBD,M
Boys,56,1,Juan Padron,Navasota,55.43,136.08,68.04,136.08,340.19,Single-ply,SBD,M
Boys,56,2,Malcolm Manley,Bryan Rudder,54.61,102.06,52.16,99.79,254.01,Single-ply,SBD,M
Boys,56,3,Tye Conger,Madisonville,54.98,92.99,52.16,97.52,242.67,Single-ply,SBD,M
Boys,60,1,Ian Campbell,Navasota,57.97,176.9,115.67,149.69,442.25,Single-ply,SBD,M
Boys,60,2,Kelbe Sylvan,Katy Taylor,58.51,163.29,81.65,183.7,428.64,Single-ply,SBD,M
Boys,60,3,John Bissaillon,Katy Taylor,58.79,149.69,90.72,167.83,408.23,Single-ply,SBD,M
Boys,60,4,Colby Sheppard,Madisonville,57.88,136.08,72.57,151.95,360.61,Single-ply,SBD,M
Boys,60,5,Jonathan Boone,Madisonville,59.6,120.2,72.57,158.76,351.53,Single-ply,SBD,M
Boys,60,6,Donovan Thomas,Navasota,59.87,122.47,74.84,147.42,344.73,Single-ply,SBD,M
Boys,60,7,Alan Rosales,Waller,57.33,113.4,74.84,154.22,342.46,Single-ply,SBD,M
Boys,67.5,1,Jeremiah Manley,Bryan Rudder,65.59,163.29,92.99,176.9,433.18,Single-ply,SBD,M
Boys,67.5,2,Jose Escolero,Katy Taylor,63.59,170.1,92.99,156.49,419.57,Single-ply,SBD,M
Boys,67.5,3,Jesse Attkinson,Magnolia West,64.95,147.42,113.4,158.76,419.57,Single-ply,SBD,M
Boys,67.5,4,Nathan Chappell,Madisonville,63.87,147.42,83.91,147.42,378.75,Single-ply,SBD,M
Boys,67.5,5,Asa Surface,Madisonville,66.86,122.47,74.84,163.29,360.61,Single-ply,SBD,M
Boys,75,1,Thomas Bauer,Katy Taylor,74.66,206.38,117.93,233.6,557.92,Single-ply,SBD,M
Boys,75,2,Dequarius White,Bryan Rudder,73.57,192.78,111.13,208.65,512.56,Single-ply,SBD,M
Boys,75,3,Charlie Reyes,Tomball,68.67,188.24,102.06,197.31,487.61,Single-ply,SBD,M
Boys,75,4,Mark Vavra,Bryan,74.57,181.44,113.4,190.51,485.34,Single-ply,SBD,M
Boys,75,5,Rashad Harvey,Bryan,71.21,176.9,81.65,181.44,439.98,Single-ply,SBD,M
Boys,75,6,Efren Garza,Madisonville,72.85,140.61,97.52,176.9,415.04,Single-ply,SBD,M
Boys,75,7,Austin Longoria,Madisonville,73.75,142.88,79.38,158.76,381.02,Single-ply,SBD,M
Boys,75,8,Nicholas McDaniel,Bryan,73.03,138.35,92.99,136.08,367.41,Single-ply,SBD,M
Boys,75,9,Colton Caycedo,Magnolia,70.31,102.06,81.65,136.08,319.78,Single-ply,SBD,M
Boys,75,10,Kevin Hall,Magnolia,67.95,102.06,,,102.06,Single-ply,S,M
Boys,82.5,1,Jaleil Brownlow,Katy Taylor,77.56,192.78,115.67,204.12,512.56,Single-ply,SBD,M
Boys,82.5,2,Taylor Ester,Tomball,81.47,195.04,97.52,195.04,487.61,Single-ply,SBD,M
Boys,82.5,3,Joel Helttkko,Magnolia West,78.02,165.56,113.4,204.12,483.08,Single-ply,SBD,M
Boys,82.5,4,Luke Malner,Tomball,81.01,165.56,113.4,183.7,462.66,Single-ply,SBD,M
Boys,82.5,5,Christian Richardson,Bryan,78.83,167.83,92.99,176.9,437.72,Single-ply,SBD,M
Boys,82.5,6,Edgar Cabrera,Magnolia,80.56,161.03,102.06,174.63,437.72,Single-ply,SBD,M
Boys,82.5,7,JaKelgein Walter,Navasota,77.11,158.76,95.25,163.29,417.3,Single-ply,SBD,M
Boys,82.5,8,Ben Renfro,Magnolia,78.74,165.56,79.38,167.83,412.77,Single-ply,SBD,M
Boys,82.5,9,Caleb Sullivan,Magnolia,78.29,111.13,95.25,142.88,349.27,Single-ply,SBD,M
Boys,82.5,10,Casey Shutt,Bryan Rudder,76.02,161.03,,,161.03,Single-ply,S,M
Boys,82.5,11,Payne Gessner,Navasota,78.29,136.08,,,136.08,Single-ply,S,M
Boys,82.5,DQ,Kevonte Johnson,Bryan Rudder,82.1,,,,,Single-ply,SBD,M
Boys,90,1,Walker Holverson,Tomball,87.54,240.4,131.54,244.94,616.89,Single-ply,SBD,M
Boys,90,2,Isaiah Wright,Waller,89.81,215.46,131.54,240.4,587.4,Single-ply,SBD,M
Boys,90,3,Ben Montgomery,Katy Taylor,86.55,213.19,136.08,208.65,557.92,Single-ply,SBD,M
Boys,90,4,Jonas Traweek,Magnolia West,87,226.8,111.13,208.65,546.58,Single-ply,SBD,M
Boys,90,5,Preston Demming,Magnolia West,85.91,192.78,129.27,217.72,539.77,Single-ply,SBD,M
Boys,90,6,Cameron Singleton,Waller,83.55,204.12,88.45,226.8,519.36,Single-ply,SBD,M
Boys,90,7,Jay Palacios,Tomball,86.09,197.31,124.74,179.17,501.22,Single-ply,SBD,M
Boys,90,8,Jaxsen Sewell,Magnolia West,84.64,204.12,106.59,172.37,483.08,Single-ply,SBD,M
Boys,90,9,Jose Barahona,Tomball,87.36,181.44,95.25,199.58,476.27,Single-ply,SBD,M
Boys,90,10,Jose Reyes,Waller,85,170.1,106.59,181.44,458.13,Single-ply,SBD,M
Boys,90,11,Paul Hamaker,Navasota,87.82,181.44,86.18,176.9,444.52,Single-ply,SBD,M
Boys,90,12,Logan Caudill,Magnolia,86.82,181.44,88.45,165.56,435.45,Single-ply,SBD,M
Boys,90,13,Ryland Ritch,Magnolia,86.27,158.76,95.25,145.15,399.16,Single-ply,SBD,M
Boys,90,14,Tim Swonke,Madisonville,89.36,147.42,83.91,158.76,390.09,Single-ply,SBD,M
Boys,90,15,Micheil Harrell,Madisonville,86.55,136.08,86.18,165.56,387.82,Single-ply,SBD,M
Boys,90,16,Juan Cortinas,Waller,84.64,142.88,86.18,142.88,371.95,Single-ply,SBD,M
Boys,90,DQ,Tyrek Houston,Navasota,89.81,185.97,,,,Single-ply,SBD,M
Boys,90,DQ,Kaidrion Latson,Bryan Rudder,86.82,226.8,,,,Single-ply,SBD,M
Boys,90,DQ,Andres Estrada,Waller,86.73,165.56,86.18,,,Single-ply,SBD,M
Boys,100,1,Noah Clarkson,Magnolia West,98.43,263.08,158.76,247.21,669.05,Single-ply,SBD,M
Boys,100,2,Josh Ferguson,Katy Taylor,92.71,244.94,154.22,244.94,644.1,Single-ply,SBD,M
Boys,100,3,Cole Wade,Magnolia West,95.16,249.48,136.08,224.53,610.08,Single-ply,SBD,M
Boys,100,4,Austin LeFevre,Katy Taylor,93.35,204.12,106.59,226.8,537.51,Single-ply,SBD,M
Boys,100,5,Jalynn Bell,Bryan,96.34,204.12,113.4,208.65,526.17,Single-ply,SBD,M
Boys,100,6,Trevin Rohrman,Waller,93.08,215.46,120.2,181.44,517.1,Single-ply,SBD,M
Boys,100,7,Oscar Alvarenga,Waller,97.43,192.78,117.93,181.44,492.15,Single-ply,SBD,M
Boys,100,8,Michael Castro,Waller,94.08,167.83,102.06,181.44,451.32,Single-ply,SBD,M
Boys,100,DQ,Patrick Menjures,Bryan,91.99,163.29,,,,Single-ply,SBD,M
Boys,100,DQ,Noah Bryson,Magnolia West,98.34,,,,,Single-ply,SBD,M
Boys,110,1,Clifford Chambers,Bryan Rudder,108.77,317.51,154.22,213.19,684.92,Single-ply,SBD,M
Boys,110,2,Hilario Rodriguez,Navasota,103.42,254.01,131.54,215.46,601.01,Single-ply,SBD,M
Boys,110,3,Caleb Diehl,Tomball,108.5,224.53,140.61,226.8,591.94,Single-ply,SBD,M
Boys,110,4,Ronald Lee,Navasota,107.68,229.06,127.01,226.8,582.87,Single-ply,SBD,M
Boys,110,5,Jakob Panah,Katy Taylor,108.77,204.12,117.93,151.95,474,Single-ply,SBD,M
Boys,110,6,Tucker Coon,Waller,105.6,167.83,102.06,140.61,410.5,Single-ply,SBD,M
Boys,110,7,Kevin Kindt,Bryan Rudder,106.5,151.95,90.72,158.76,401.43,Single-ply,SBD,M
Boys,110,DQ,Marco Menjares,Bryan,101.42,181.44,,,,Single-ply,SBD,M
Boys,110,DQ,Logan Clarke,Magnolia West,102.15,,,,,Single-ply,SBD,M
Boys,125,1,JaVarious Sullivan,Bryan,124.01,215.46,124.74,249.48,589.67,Single-ply,SBD,M
Boys,125,2,Felipe Alvarado,Navasota,117.75,251.74,117.93,206.38,576.06,Single-ply,SBD,M
Boys,125,3,Nelson Avalos,Magnolia West,122.47,226.8,120.2,210.92,557.92,Single-ply,SBD,M
Boys,125,4,Ryder Gage,Tomball,116.48,215.46,136.08,183.7,535.24,Single-ply,SBD,M
Boys,125,5,Daniel Leon,Magnolia,122.47,226.8,108.86,181.44,517.1,Single-ply,SBD,M
Boys,125,6,Gage Grant,Bryan,113.13,192.78,117.93,170.1,480.81,Single-ply,SBD,M
Boys,125,7,Ylijah Hall,Bryan,122.56,163.29,122.47,170.1,455.86,Single-ply,SBD,M
Boys,125,8,Tristan Simpson,Magnolia,123.92,154.22,104.33,167.83,426.38,Single-ply,SBD,M
Boys,125+,1,Christian Shanahan,Magnolia,137.98,272.16,142.88,226.8,641.83,Single-ply,SBD,M
Boys,125+,2,Otito Ogbonnia,Katy Taylor,126.64,238.14,131.54,251.74,621.42,Single-ply,SBD,M
Boys,125+,3,Christian Alexander,Tomball,136.08,240.4,142.88,210.92,594.21,Single-ply,SBD,M
Boys,125+,4,Jakobe Nutall,Bryan Rudder,131.72,226.8,142.88,206.38,576.06,Single-ply,SBD,M
Boys,125+,5,Joey McIver,Madisonville,133.54,226.8,140.61,206.38,573.79,Single-ply,SBD,M
Boys,125+,6,Kory Owens,Magnolia West,160.39,215.46,124.74,210.92,551.11,Single-ply,SBD,M
Boys,125+,7,Colton Campbell,Bryan,134.99,226.8,131.54,158.76,517.1,Single-ply,SBD,M
Boys,125+,8,Kade Bond,Magnolia,127.1,181.44,136.08,190.51,508.02,Single-ply,SBD,M
Boys,125+,DQ,Brayden Arnold,Tomball,149.23,226.8,,,,Single-ply,SBD,M
