Place,Name,BirthYear,Sex,BodyweightKg,Squat1Kg,Squat2Kg,Squat3Kg,Best3SquatKg,Bench1Kg,Bench2Kg,Bench3Kg,Best3BenchKg,Deadlift1Kg,Deadlift2Kg,Deadlift3Kg,Best3DeadliftKg,TotalKg,Equipment,WeightClassKg,Event
1,Samantha Nevins,1989,F,72,105,110,-120,110,55,60,-65,60,115,120,127.5,127.5,297.5,Raw,72,SBD
1,Elena Vatti,1991,F,76.65,115,125,132.5,132.5,70,-77.5,77.5,77.5,95,110,120,120,330,Raw,84,SBD
1,Mitch Munro,1989,M,92.3,230,240,,240,150,160,,160,270,285,,285,685,Raw,94,SBD
2,William Lavery,1994,M,91.3,190,-200,200,200,125,130,-135,130,240,-250,-250,240,570,Raw,94,SBD
3,Kieren Bucher,2002,M,90.2,100,120,140,140,100,110,120,120,160,200,210,210,470,Raw,94,SBD
DQ,Sarah Vanderstelt,1981,F,71.3,-80,-80,-80,,40,-45,45,45,90,100,-105,100,,Raw,72,SBD
