Place,Name,State,WeightClassKg,BodyweightKg,Age,Best3SquatKg,Best3BenchKg,Best3DeadliftKg,TotalKg,Sex,Division,Equipment,Event
1,April Purvis,NC,60,59,21,142.5,72.5,157.5,372.5,F,Junior 20-23,Raw,SBD
1,Hanna Young,NC,67.5,64.1,19,130,72.5,155,357.5,F,Junior 18-19,Raw,SBD
1,Ashley Bleggi,NC,75,74,21,100,57.5,127.5,285,F,Junior 20-23,Raw,SBD
1,Johanna Brubaker,NC,52,50.7,34,102.5,55,125,282.5,F,Open,Raw,SBD
1,Kathryn Mabe,GA,56,55.3,23,112.5,65,142.5,320,F,Open,Raw,SBD
2,Akilah Smallwood,NC,56,54.6,34,100,57.5,132.5,290,F,Open,Raw,SBD
1,Robyn Machado,NC,60,59,31,140,85,162.5,387.5,F,Open,Raw,SBD
2,April Purvis,NC,60,59,21,142.5,72.5,157.5,372.5,F,Open,Raw,SBD
3,Kamila Wisniewska,NC,60,59.6,24,127.5,70,172.5,370,F,Open,Raw,SBD
1,Amy Drake,NC,67.5,65.9,29,135,82.5,185,402.5,F,Open,Raw,SBD
2,Angela Bischof,NC,67.5,67,25,132.5,75,170,377.5,F,Open,Raw,SBD
3,Jennifer Wright,NC,67.5,65.8,27,120,70,142.5,332.5,F,Open,Raw,SBD
4,Anna Shelton,NC,67.5,60.3,23,112.5,67.5,137.5,317.5,F,Open,Raw,SBD
5,Cris Lapira,NC,67.5,60.1,33,92.5,52.5,125,270,F,Open,Raw,SBD
6,Heather Tolles,NC,67.5,65.3,30,107.5,52.5,110,270,F,Open,Raw,SBD
7,Stephanie Scheller,NC,67.5,61.2,26,75,42.5,95,212.5,F,Open,Raw,SBD
DQ,Reneé Kiernan,NC,67.5,66.9,26,110,,,,F,Open,Raw,SBD
1,Janay Robinson,NC,75,68.2,30,102.5,77.5,160,340,F,Open,Raw,SBD
2,Lori Brinn,NC,75,74,34,112.5,62.5,145,320,F,Open,Raw,SBD
3,Rachel McGorman,NC,75,71.3,30,102.5,67.5,140,310,F,Open,Raw,SBD
4,Cari Andrew,NC,75,72.5,33,120,60,122.5,302.5,F,Open,Raw,SBD
5,Dayna OByrne,NC,75,74.3,30,120,62.5,120,302.5,F,Open,Raw,SBD
1,Kristin Armstrong,NC,82.5,78.1,31,132.5,50,155,337.5,F,Open,Raw,SBD
2,Lydia Pound,NC,82.5,79.7,28,125,60,130,315,F,Open,Raw,SBD
3,Cheryl Willis,NC,82.5,81.7,44,115,62.5,130,307.5,F,Open,Raw,SBD
1,Ashli Guillory,NC,52,48.4,35,82.5,47.5,100,230,F,Submaster,Raw,SBD
1,Dyanna Hough,NC,60,58.3,35,105,52.5,110,267.5,F,Submaster,Raw,SBD
1,Leeanna Tolles,NC,67.5,66.3,37,102.5,47.5,107.5,257.5,F,Submaster,Raw,SBD
1,Crystal Carlisle,NC,56,55,40,95,62.5,107.5,265,F,Master 40-44,Raw,SBD
1,Bunny Blake,NC,60,59.9,44,100,57.5,140,297.5,F,Master 40-44,Raw,SBD
1,Brigid Dohse,NC,67.5,66.8,43,85,52.5,110,247.5,F,Master 40-44,Raw,SBD
1,Cheryl Willis,NC,82.5,81.7,44,115,62.5,130,307.5,F,Master 40-44,Raw,SBD
1,Rachel Mitchell,NC,90,84.2,47,97.5,57.5,117.5,272.5,F,Master 45-49,Raw,SBD
1,Jennifer Anderson,NC,90+,113.8,41,82.5,57.5,137.5,277.5,F,Master 40-44,Raw,SBD
1,Jacqueline McMillian,NC,90+,103.6,46,95,55,107.5,257.5,F,Master 45-49,Raw,SBD
1,Jason Keenan,NC,82.5,82.3,17,217.5,125,272.5,615,M,Junior 16-17,Raw,SBD
1,Charles Cervi,NC,82.5,82.1,19,165,102.5,185,452.5,M,Junior 18-19,Raw,SBD
1,Hayden Asbill,NC,90,85.7,16,190,131,215,536,M,Junior 16-17,Raw,SBD
1,Jack Hartmann,SC,90,87,20,185,130,235,550,M,Junior 20-23,Raw,SBD
1,Caleb Viau,VA,100,99.8,22,290,160,280,730,M,Junior 20-23,Raw,SBD
2,Charles Hedges,FL,100,98.8,23,205,145,272.5,622.5,M,Junior 20-23,Raw,SBD
3,Matthew Gray,NC,100,96.9,20,205,117.5,225,547.5,M,Junior 20-23,Raw,SBD
4,Lucas Molander,NC,100,98,21,165,82.5,182.5,430,M,Junior 20-23,Raw,SBD
1,Cameron Clowser,SC,110,110,23,257.5,167.5,305,730,M,Junior 20-23,Raw,SBD
1,Jaeger Goepfert,NC,75,73.5,24,185,107.5,242.5,535,M,Open,Raw,SBD
2,Gene Beecher,NC,75,74.7,23,177.5,122.5,232.5,532.5,M,Open,Raw,SBD
3,Dyllan Moss,NC,75,74.9,21,182.5,127.5,212.5,522.5,M,Open,Raw,SBD
4,Joe Favale,NC,75,72,25,145,100,182.5,427.5,M,Open,Raw,SBD
1,Brandon Poplin,NC,82.5,82,27,220,137.5,250,607.5,M,Open,Raw,SBD
2,Matthew Poplin,NC,82.5,81.4,25,207.5,140,240,587.5,M,Open,Raw,SBD
3,Nathan Sugden,NC,82.5,81.1,28,207.5,142.5,225,575,M,Open,Raw,SBD
4,Mark Mula,NC,82.5,81.3,27,182.5,117.5,205,505,M,Open,Raw,SBD
5,Graham Rogers,NC,82.5,79.7,35,165,112.5,202.5,480,M,Open,Raw,SBD
1,Mason Salisbury,NC,90,89.7,41,222.5,150,277.5,650,M,Open,Raw,SBD
2,Jack Hartmann,SC,90,87,20,185,130,235,550,M,Open,Raw,SBD
3,Christopher Anderson,NC,90,87.7,31,180,135,202.5,517.5,M,Open,Raw,SBD
4,Peter Baez,SC,90,83.1,28,172.5,105,182.5,460,M,Open,Raw,SBD
1,Austin Walters,NC,100,96.6,29,240,165,252.5,657.5,M,Open,Raw,SBD
2,Tylar Temple,NC,100,99.7,30,210,150,232.5,592.5,M,Open,Raw,SBD
3,Brooks Dove,NC,100,98.1,26,195,157.5,220,572.5,M,Open,Raw,SBD
4,Corey Lane,NC,100,93,27,205,102.5,245,552.5,M,Open,Raw,SBD
5,Michael Mann,NC,100,98.2,28,205,115,215,535,M,Open,Raw,SBD
6,Diontay Isaac,NC,100,98.9,25,185,127.5,200,512.5,M,Open,Raw,SBD
1,William West,NC,110,106.6,29,227.5,127.5,230,585,M,Open,Raw,SBD
2,Richard Tynan,NC,110,104.1,26,200,127.5,205,532.5,M,Open,Raw,SBD
DQ,Creighton Asbill,SC,110,100.2,24,195,,,,M,Open,Raw,SBD
1,Jetter Lewis,NC,125,119,25,287.5,192.5,322.5,802.5,M,Open,Raw,SBD
1,Jesse Kidd,WV,140+,146,35,267.5,213.5,295,776,M,Open,Raw,SBD
1,Stephen Bradshaw,NC,110,104.2,39,165,120,192.5,477.5,M,Submaster,Raw,SBD
1,Joe Pattison,NC,125,119.2,36,192.5,122.5,232.5,547.5,M,Submaster,Raw,SBD
2,Gavin Hough,NC,125,122,36,195,122.5,220,537.5,M,Submaster,Raw,SBD
1,Jesse Kidd,WV,140+,146,35,267.5,213.5,295,776,M,Submaster,Raw,SBD
1,Mason Salisbury,NC,90,89.7,41,222.5,150,277.5,650,M,Master 40-44,Raw,SBD
1,Scott Asbill,NC,110,108.9,45,237.5,150,237.5,625,M,Master 45-49,Raw,SBD
1,Andrew Kingsley,NC,125,113.4,42,227.5,147.5,237.5,612.5,M,Master 40-44,Raw,SBD
1,Erin Collins,NC,67.5,67,21,195,100.5,185,480.5,F,Junior 20-23,Wraps,SBD
1,Jessica Valdez,NC,52,51.4,28,100,55,110,265,F,Open,Wraps,SBD
1,Allison Santana,NC,56,54.4,37,100,52.5,112.5,265,F,Open,Wraps,SBD
1,Carrie Althoff,NC,60,59.2,25,122.5,65,132.5,320,F,Open,Wraps,SBD
2,Jessica Ferris,NC,60,59.2,31,115,55,142.5,312.5,F,Open,Wraps,SBD
1,Christi Galloway,NC,67.5,62.5,29,87.5,60,140,287.5,F,Open,Wraps,SBD
2,Renee Emory,NC,67.5,67.5,50,115,55,110,280,F,Open,Wraps,SBD
1,Allison Santana,NC,56,54.4,37,100,52.5,112.5,265,F,Submaster,Wraps,SBD
1,Meg Varvoutis,NC,82.5,80,36,125,65,120,310,F,Submaster,Wraps,SBD
1,Renee Emory,NC,67.5,67.5,50,115,55,110,280,F,Master 50-54,Wraps,SBD
1,Donovan Recny,NC,82.5,81.8,20,215,115,275,605,M,Junior 20-23,Wraps,SBD
1,CJ Norris,NC,100,99,22,270,137.5,272.5,680,M,Junior 20-23,Wraps,SBD
1,Wiliam Walker,NC,140,127.7,20,290,165,275,730,M,Junior 20-23,Wraps,SBD
1,Jake Weaver,NC,60,59.8,21,190,117.5,205,512.5,M,Open,Wraps,SBD
1,Michael Vargas,NC,75,69.6,21,227.5,127.5,240,595,M,Open,Wraps,SBD
2,Chris Moody #1,NC,75,73.9,26,177.5,107.5,235,520,M,Open,Wraps,SBD
1,Jose Rivera-Ramos,NC,82.5,80.7,25,137.5,97.5,192.5,427.5,M,Open,Wraps,SBD
1,Daniel Wahl,NC,90,88.5,30,202.5,135,237.5,575,M,Open,Wraps,SBD
1,Brandon Holmes,GA,100,99.3,28,262.5,185,287.5,735,M,Open,Wraps,SBD
2,Alex Skinner,VA,100,98.1,27,222.5,165,272.5,660,M,Open,Wraps,SBD
DQ,Jordan Tynall,NC,100,95,24,,,,,M,Open,Wraps,SBD
1,Michael Yartin,NC,125,122.8,35,232.5,140,247.5,620,M,Open,Wraps,SBD
DQ,Charles Walton,NC,90,87.6,60,192.5,,,,M,Master 60-64,Single-ply,SBD
1,Kristin Williams,NC,60,59.4,34,,62.5,,62.5,F,Open,Raw,B
1,Colton Hurley,NC,90,89.6,16,,125,,125,M,Junior 16-17,Raw,B
1,Thomas Fichter,NC,90,89,48,,205,,205,M,Master 45-49,Multi-ply,B
1,Natalie Lavorato,NC,60,58.3,51,,,105,105,F,Open,Raw,D
1,Natalie Lavorato,NC,60,58.3,51,,,105,105,F,Master 50-54,Raw,D
1,Jason Keenan,NC,82.5,82.3,17,,,272.5,272.5,M,Junior 16-17,Raw,D
1,Corey Lane,NC,100,93,27,,,245,245,M,Open,Raw,D
1,William Sanders,NC,110,108.2,45,,,192.5,192.5,M,Open,Raw,D
1,William Moore,NC,125,113.2,28,,,297.5,297.5,M,Open,Raw,D
1,Lauren Wilson,NC,48,45.4,24,,30,47.5,77.5,F,Open,Raw,BD
1,Diontay Isaac,NC,100,98.9,25,,127.5,200,327.5,M,Open,Raw,BD
1,William Moore,NC,125,113.2,28,,205,297.5,502.5,M,Open,Raw,BD
