Place,Name,Division,Event,Sex,Equipment,State,WeightClassKg,BodyweightKg,Age,Best3SquatKg,Squat4Kg,Best3BenchKg,Bench4Kg,Best3DeadliftKg,Deadlift4Kg,TotalKg
1,Logan Whitfill,JR 20-23,SBD,F,Raw,AZ,60,58.3,20,110,,57.5,,132.5,,300
1,Becky Kiraly,Open,SBD,F,Raw,AZ,60,59.2,33,122.5,,72.5,,160,,355
2,Logan Whitfill,Open,SBD,F,Raw,AZ,60,58.3,20,110,,57.5,,132.5,,300
1,Allison Clark,Open,SBD,F,Raw,AZ,67.5,64.6,27,65,,52.5,,132.5,,250
1,Farrah Tate,Open,SBD,F,Raw,AZ,90,90,28,115,,98,,175,,388
1,Christina Gutierrez,Open,SBD,F,Raw,AZ,90+,93,43,140,,70,,170,,380
1,LeAnne Shumaker,Master 45-49,SBD,F,Raw,AZ,75,74.9,45,92.5,,70,,142.5,,305
1,Christina Gutierrez,Master 40-44,SBD,F,Raw,AZ,90+,93,43,140,,70,,170,,380
1,Chris Anderson,JR 20-23,SBD,M,Raw,AZ,82.5,81.8,23,232.5,,160,,266,,658.5
2,Joe Ansah,JR 20-23,SBD,M,Raw,AZ,82.5,81.2,21,192.5,,128,,250,,570
1,Gabriel Diaz,JR 20-23,SBD,M,Raw,AZ,100,97.5,21,185,,148,,227.5,,560
1,Thi Ngo,Open,SBD,M,Raw,AZ,75,74.7,24,185,,110,,200,,495
2,Taylor Hines,Open,SBD,M,Raw,AZ,75,73.8,29,120,,80,,150,,350
1,Thomas Sheets,Open,SBD,M,Raw,AZ,82.5,81.2,24,210,,143,,247.5,,600
1,Lee Hammer,Open,SBD,M,Raw,AZ,90,89,28,235,,148,,272.5,,655
2,Bradley Schofield,Open,SBD,M,Raw,AZ,90,90,33,220,,143,,272.5,,635
3,Joe McGannon,Open,SBD,M,Raw,AZ,90,89.1,24,212.5,,143,,260,,615
4,Kaleb Murray,Open,SBD,M,Raw,AZ,90,86.5,24,192.5,,138,,227.5,,557.5
1,Francisco Rodriguez,Open,SBD,M,Raw,AZ,100,91.1,27,217.5,,138,,237.5,,592.5
2,Kelley Wolfe,Open,SBD,M,Raw,AZ,100,99.6,30,192.5,,138,,242.5,,572.5
1,Christopher Knight,Open,SBD,M,Raw,AZ,125,121.1,30,265,,220,,305,,790
2,Thomas Eppolito,Open,SBD,M,Raw,AZ,125,124,28,280,,155,,267.5,,702.5
3,Seth Nieminski,Open,SBD,M,Raw,AZ,125,113.5,26,242.5,,138,,230,,610
1,Tricia Downing,Open,SBD,F,Wraps,AZ,60,59.7,41,115,120,70,,138,142.5,323
1,Tricia Downing,Master 40-44,SBD,F,Wraps,AZ,60,59.7,41,115,120,70,,138,142.5,323
1,Cristina Ramirez,Master 50-54,SBD,F,Wraps,AZ,82.5,80.5,53,105,,65,,162.5,,332.5
1,Chevy Shumaker,JR 16-17,SBD,M,Wraps,AZ,67.5,65.1,17,155,,92.5,,198,,445.5
1,Drew Hagen,JR 20-23,SBD,M,Wraps,AZ,100,98.7,22,210,,160,,237.5,,607.5
1,Josh Sanderson,JR 20-23,SBD,M,Wraps,AZ,125,123.3,23,272.5,,188,,262.5,,722.5
DQ,Craig Recore,Open,SBD,M,Wraps,AZ,90,89.7,43,,,,,,,
1,Drew Hagen,Open,SBD,M,Wraps,AZ,100,98.7,22,210,,160,,237.5,,607.5
1,Josh Sanderson,Open,SBD,M,Wraps,AZ,125,123.3,23,272.5,,188,,262.5,,722.5
1,Paul Popoff,Open,SBD,M,Wraps,AZ,140,137.3,34,307.5,,193,,292.5,,792.5
1,Ethan Gonzalez,Open,SBD,M,Wraps,AZ,140+,151.2,32,272.5,,213,,272.5,,757.5
1,Peter Jezyk,Master 75-79,SBD,M,Wraps,AZ,75,73,76,102.5,,47.5,,145,,295
DQ,Craig Recore,Master 40-44,SBD,M,Wraps,AZ,90,89.7,43,,,,,,,
1,Suzanne Davis,Open,SBD,F,Single-ply,AZ,56,55.9,44,162.5,,89,93,210.5,,462
2,Tamara McElwee,Open,SBD,F,Single-ply,AZ,56,55.3,48,130,,92.5,,122.5,,345
1,Suzanne Davis,Master 40-44,SBD,F,Single-ply,AZ,56,55.9,44,162.5,,89,93,210.5,,462
1,Tamara McElwee,Master 45-49,SBD,F,Single-ply,AZ,56,55.3,48,130,,92.5,,122.5,,345
DQ,Mike Early,Open,SBD,M,Single-ply,AZ,90,90,40,282.5,,233,,,,
DQ,Mike Early,Master 40-44,SBD,M,Single-ply,AZ,90,90,40,282.5,,233,,,,
1,Chad Drecksel,Master 60-64,SBD,M,Single-ply,AZ,110,104.1,61,230,,160,,250,,640
1,Jared Ortega,JR 18-19,B,M,Raw,AZ,82.5,81.9,18,,,85,,,,85
1,Atom Cook,JR 20-23,B,M,Raw,AZ,100,98.6,23,,,125,,,,125
1,Shawn Nordan,Open,B,M,Raw,AZ,67.5,65.6,37,,,127.5,,,,127.5
1,Jason Newland,Open,B,M,Raw,AZ,100,95.2,34,,,170,,,,170
2,Atom Cook,Open,B,M,Raw,AZ,100,98.6,23,,,125,,,,125
1,Gary Ware,Open,B,M,Raw,AZ,110,108.1,44,,,200,,,,200
2,Jarrod Mills,Open,B,M,Raw,AZ,110,107.4,37,,,200,,,,200
1,Paul Popoff,Open,B,M,Raw,AZ,140,137.3,34,,,192.5,,,,192.5
1,Shawn Nordan,Submaster 35-39,B,M,Raw,AZ,67.5,65.6,37,,,127.5,,,,127.5
1,Jarrod Mills,Submaster 35-39,B,M,Raw,AZ,110,107.4,37,,,200,,,,200
1,Phillip Dominguez,Master 40-44,B,M,Raw,AZ,75,71.9,40,,,100,,,,100
1,Ken Treguboff,Master 60-64,B,M,Raw,AZ,100,99.3,64,,,135,,,,135
1,Gary Ware,Master 40-44,B,M,Raw,AZ,110,108.1,44,,,200,,,,200
1,Glenn Russo,Open,B,M,Single-ply,AZ,140,133,45,,,330,,,,330
1,Glenn Russo,Master 45-49,B,M,Single-ply,AZ,140,133,45,,,330,,,,330
DQ,Michael Bowden,Open,B,M,Multi-ply,AZ,140+,155.5,54,,,,,,,
1,Nicole Perez,Open,D,F,Raw,AZ,67.5,67.5,30,,,,,175.5,,175.5
1,James Gengler Jr,JR 16-17,D,M,Raw,AZ,82.5,80.4,17,,,,,227.5,,227.5
1,Atom Cook,JR 20-23,D,M,Raw,AZ,100,98.6,23,,,,,287.5,,287.5
1,Atom Cook,Open,D,M,Raw,AZ,100,98.6,23,,,,,287.5,,287.5
1,Paul Popoff,Open,D,M,Raw,AZ,140,137.3,34,,,,,292.5,,292.5
1,Ethan Gonzalez,Open,D,M,Raw,AZ,140+,151.2,32,,,,,272.5,,272.5
