Division,WeightClassKg,Place,Name,Team,BodyweightKg,Best3SquatKg,Best3BenchKg,Best3DeadliftKg,TotalKg,Equipment,Event,Sex
Boys,52,1,Andres Guerra,Manor,51.71,102.06,65.77,129.27,297.1,Single-ply,SBD,M
Boys,52,DQ,Connor Ruchti,Dripping Springs,51.71,,,,,Single-ply,SBD,M
Boys,52,DQ,Bradley Spillar,Dripping Springs,51.71,,,,,Single-ply,SBD,M
Boys,56,1,Christian Lopez,Manor,55.79,136.08,102.06,142.88,381.02,Single-ply,SBD,M
Boys,56,2,Derek Saulcedo,Pflugerville Connally,53.25,113.4,56.7,145.15,315.25,Single-ply,SBD,M
Boys,56,3,Isac Edwards,Manor,53.98,102.06,61.23,136.08,299.37,Single-ply,SBD,M
Boys,56,4,Dorian Armstrong,Killeen Ellison,55.43,106.59,52.16,108.86,267.62,Single-ply,SBD,M
Boys,56,DQ,Andrew Solis,Pflugerville Connally,55.79,,,,,Single-ply,SBD,M
Boys,60,1,Johnny Mata,Hutto,59.87,120.2,72.57,165.56,358.34,Single-ply,SBD,M
Boys,60,2,Jose Marquez,Waco,59.06,127.01,77.11,124.74,328.85,Single-ply,SBD,M
Boys,60,3,Tristen Aleksines,Hutto,58.24,115.67,72.57,133.81,322.05,Single-ply,SBD,M
Boys,60,4,Xavier Elizondo,Pflugerville Connally,59.42,104.33,61.23,136.08,301.64,Single-ply,SBD,M
Boys,60,5,Omar Deleora,Pflugerville,58.33,102.06,63.5,129.27,294.84,Single-ply,SBD,M
Boys,60,6,Brandon Ugarte,Pflugerville Connally,59.42,65.77,38.56,90.72,195.04,Single-ply,SBD,M
Boys,60,7,Shawnpail Fields,Taylor,58.42,181.44,,,181.44,Single-ply,S,M
Boys,67.5,1,Isaiah Mesa,Taylor,65.95,263.08,142.88,235.87,641.83,Single-ply,SBD,M
Boys,67.5,2,Happy Jones,Manor,66.5,201.85,92.99,183.7,478.54,Single-ply,SBD,M
Boys,67.5,3,Matthew Reiff,Pflugerville,65.86,181.44,102.06,183.7,467.2,Single-ply,SBD,M
Boys,67.5,4,Trestan Hudnall,Killeen Ellison,63.78,170.1,102.06,192.78,464.93,Single-ply,SBD,M
Boys,67.5,5,Josh Howard,Hutto,66.22,167.83,104.33,161.03,433.18,Single-ply,SBD,M
Boys,67.5,6,Stephen Leal,Taylor,63.59,172.37,95.25,163.29,430.91,Single-ply,SBD,M
Boys,67.5,7,Seth Cummings,Pflugerville Hendrickson,66.86,151.95,83.91,192.78,428.64,Single-ply,SBD,M
Boys,75,1,Josh Tiha,Manor,67.4,217.72,102.06,226.8,546.58,Single-ply,SBD,M
Boys,75,2,Christian Yannis,Taylor,74.84,195.04,95.25,215.46,505.76,Single-ply,SBD,M
Boys,75,3,Hugh Shelton,Taylor,72.57,172.37,97.52,229.06,498.95,Single-ply,SBD,M
Boys,75,4,Brock McKiver,Killeen Ellison,74.75,181.44,108.86,183.7,474,Single-ply,SBD,M
Boys,75,5,Trejo Tucker,Hutto,74.57,179.17,108.86,174.63,462.66,Single-ply,SBD,M
Boys,75,6,Steven Crenshaw,Pflugerville Connally,69.31,158.76,97.52,188.24,444.52,Single-ply,SBD,M
Boys,75,7,Cameron Forrest,Hutto,72.76,158.76,97.52,176.9,433.18,Single-ply,SBD,M
Boys,75,8,TJ Eldridge,Pflugerville Hendrickson,73.21,156.49,97.52,179.17,433.18,Single-ply,SBD,M
Boys,75,9,Caleb Forrest,Hutto,73.3,136.08,95.25,176.9,408.23,Single-ply,SBD,M
Boys,75,10,Easy Charles,Manor,68.4,149.69,86.18,156.49,392.36,Single-ply,SBD,M
Boys,75,11,Matthew Kocian,Taylor,74.03,235.87,,,235.87,Single-ply,S,M
Boys,75,12,Travion Walker,Manor,71.94,,68.04,156.49,224.53,Single-ply,BD,M
Boys,75,13,Jaden Moreno,Pflugerville Connally,71.85,142.88,,,142.88,Single-ply,S,M
Boys,82.5,1,Jakobe Davidson,Hutto,79.29,172.37,115.67,229.06,517.1,Single-ply,SBD,M
Boys,82.5,2,Amir Wiley,Pflugerville,80.65,190.51,108.86,174.63,474,Single-ply,SBD,M
Boys,82.5,3,Courtney Lee,Manor,79.83,142.88,92.99,215.46,451.32,Single-ply,SBD,M
Boys,82.5,4,Cory Alcala,Pflugerville Connally,81.83,149.69,104.33,151.95,405.97,Single-ply,SBD,M
Boys,82.5,5,Anthony Ferrere,Killeen Ellison,81.83,106.59,63.5,140.61,310.71,Single-ply,SBD,M
Boys,82.5,6,Darren Pierson,Pflugerville Connally,76.11,142.88,,136.08,278.96,Single-ply,SD,M
Boys,82.5,7,Brandon Doty,Pflugerville Hendrickson,79.2,156.49,111.13,,267.62,Single-ply,SB,M
Boys,90,1,Olisa Uzuegbunam,Manor,85.37,244.94,149.69,249.48,644.1,Single-ply,SBD,M
Boys,90,2,Dwain Richie,Waco,88,233.6,127.01,238.14,598.74,Single-ply,SBD,M
Boys,90,3,Gelico Green,Waco,88.09,208.65,120.2,226.8,555.65,Single-ply,SBD,M
Boys,90,4,Kristofer Melgar,Killeen Ellison,88.81,192.78,97.52,204.12,494.42,Single-ply,SBD,M
Boys,90,5,Tajha Brooks,Manor,88.27,174.63,90.72,192.78,458.13,Single-ply,SBD,M
Boys,90,6,Emeca Esquanie,Manor,85.37,165.56,83.91,204.12,453.59,Single-ply,SBD,M
Boys,90,7,Sebastian Rodriguez,Pflugerville Hendrickson,85.46,156.49,102.06,174.63,433.18,Single-ply,SBD,M
Boys,90,8,Ryan Strobel,Pflugerville,88,156.49,97.52,176.9,430.91,Single-ply,SBD,M
Boys,90,9,Vincent Ume-Ezeoke,Pflugerville,89.54,188.24,,170.1,358.34,Single-ply,SD,M
Boys,90,DQ,Trey Bishop,Pflugerville Connally,88.72,,,,,Single-ply,SBD,M
Boys,90,DQ,Shane Buckingham,Taylor,87.91,,,,,Single-ply,SBD,M
Boys,100,1,Jason Allen,Taylor,97.34,217.72,154.22,222.26,594.21,Single-ply,SBD,M
Boys,100,2,Ochaun Mathis,Manor,99.79,208.65,124.74,260.82,594.21,Single-ply,SBD,M
Boys,100,3,Lordswill Uwa-Ndukwe,Hutto,99.7,176.9,108.86,210.92,496.68,Single-ply,SBD,M
Boys,100,4,Hunter Robertson,Pflugerville Hendrickson,95.44,174.63,92.99,174.63,442.25,Single-ply,SBD,M
Boys,100,5,Jaron Horn,Pflugerville,90.81,219.99,,204.12,424.11,Single-ply,SD,M
Boys,100,6,John McKee,Pflugerville Connally,93.08,154.22,83.91,165.56,403.7,Single-ply,SBD,M
Boys,100,7,Gastavo Balli,Manor,99.43,181.44,,219.99,401.43,Single-ply,SD,M
Boys,100,8,Jarron Lewis,Pflugerville Connally,91.17,145.15,95.25,145.15,385.55,Single-ply,SBD,M
Boys,100,9,Devin Gregory,Pflugerville Hendrickson,98.16,210.92,115.67,,326.59,Single-ply,SB,M
Boys,100,DQ,Chris Rivera,Pflugerville Connally,99.79,,74.84,,,Single-ply,SBD,M
Boys,110,1,Jace Chambers,Pflugerville Hendrickson,106.87,215.46,131.54,247.21,594.21,Single-ply,SBD,M
Boys,110,2,Keyshawn Dudley,Waco,107.95,219.99,142.88,219.99,582.87,Single-ply,SBD,M
Boys,110,3,Rey Sanchez,Pflugerville Hendrickson,104.14,197.31,120.2,215.46,532.97,Single-ply,SBD,M
Boys,110,4,Jeremy Fowler,Manor,105.69,188.24,113.4,226.8,528.44,Single-ply,SBD,M
Boys,110,5,Daniel Villalobos,Taylor,107.77,195.04,122.47,192.78,510.29,Single-ply,SBD,M
Boys,110,6,Zarek Roberts,Killeen Ellison,109.77,167.83,111.13,192.78,471.74,Single-ply,SBD,M
Boys,110,7,Trace Lopez,Taylor,105.23,167.83,88.45,145.15,401.43,Single-ply,SBD,M
Boys,110,8,Osmany Diaz,Pflugerville Connally,106.32,133.81,88.45,158.76,381.02,Single-ply,SBD,M
Boys,125,1,Tyrese Beasley,Waco,122.56,274.42,158.76,226.8,659.98,Single-ply,SBD,M
Boys,125,2,Kevondre Black,Waco,118.84,278.96,149.69,204.12,632.76,Single-ply,SBD,M
Boys,125,3,Curtavis Norman,Waco,115.85,251.74,142.88,222.26,616.89,Single-ply,SBD,M
Boys,125,4,Walker Riley,Pflugerville Hendrickson,115.39,197.31,106.59,201.85,505.76,Single-ply,SBD,M
Boys,125,5,Johnathan Vargas,Pflugerville Connally,118.57,156.49,124.74,185.97,467.2,Single-ply,SBD,M
Boys,125,6,Kallen Maxwell,Pflugerville Connally,118.12,158.76,86.18,165.56,410.5,Single-ply,SBD,M
Boys,125,DQ,Lazaro Mendez,Pflugerville Connally,124.74,217.72,,,,Single-ply,SBD,M
Boys,125+,1,Marquise Gardner,Manor,154.4,340.19,181.44,219.99,741.62,Single-ply,SBD,M
Boys,125+,2,Dominic Pastucci,Pflugerville Hendrickson,137.98,272.16,183.7,267.62,723.48,Single-ply,SBD,M
Boys,125+,3,Domenic Valdespino,Pflugerville Hendrickson,145.51,288.03,163.29,263.08,714.41,Single-ply,SBD,M
Boys,125+,4,La'Daidreain Glasker,Waco,135.35,260.82,151.95,249.48,662.24,Single-ply,SBD,M
Boys,125+,5,Khalil Glasker,Waco,136.8,258.55,145.15,235.87,639.57,Single-ply,SBD,M
Boys,125+,6,Anthony Hill,Manor,163.29,249.48,124.74,238.14,612.35,Single-ply,SBD,M
Boys,125+,7,Chapman Rowe,Killeen Ellison,138.98,226.8,88.45,197.31,512.56,Single-ply,SBD,M
Boys,125+,8,Marty Rodriguez,Hutto,138.8,244.94,133.81,,378.75,Single-ply,SB,M
Boys,125+,9,Will Taylor,Killeen Ellison,129.73,102.06,70.31,129.27,301.64,Single-ply,SBD,M
Boys,,DQ,RJ Petaia,Pflugerville,,,,,,Single-ply,SBD,M
Boys,,DQ,Travis Gebert,Pflugerville,,,,,,Single-ply,SBD,M
Boys,,DQ,Austin Olson,Hutto,,,,,,Single-ply,SBD,M
Boys,,DQ,Kaleb Lindsey,Hutto,,,,,,Single-ply,SBD,M
Boys,,DQ,Terrion Brown,Manor,,,,,,Single-ply,SBD,M
Boys,,DQ,Taylor Brocato,Manor,,,,,,Single-ply,SBD,M
Boys,,DQ,Kevin Sanders,Waco,,,,,,Single-ply,SBD,M
Boys,,DQ,Tyheme Isabel,Waco,,,,,,Single-ply,SBD,M
