Place,WeightClassKg,Name,Equipment,Team,BodyweightKg,Squat1Kg,Squat2Kg,Squat3Kg,Best3SquatKg,Bench1Kg,Bench2Kg,Bench3Kg,Best3BenchKg,Deadlift1Kg,Deadlift2Kg,Deadlift3Kg,Best3DeadliftKg,TotalKg,Division,Sex,Event
1,74,Frode Larsen,Single-ply,Rana KK,73.68,175,190,200,200.0,120,127.5,-130,127.5,175,190,-200,190.0,517.5,Master 50-59,M,SBD
1,105,Jan-Roger Johansen,Raw,Rana KK,102.87,215,235,245,245.0,120,130,,130.0,225,245,-260,245.0,620,Master 50-59,M,SBD
