Division,WeightClassKg,Place,Name,Team,BodyweightKg,Best3SquatKg,Best3BenchKg,Best3DeadliftKg,TotalKg,Equipment,Event,Sex
Boys,52,1,Devin Bandow,Lago Vista,51.17,117.93,70.31,102.06,290.3,Single-ply,SBD,M
Boys,52,2,Clayton Whitmire,Little River Academy,48.81,90.72,52.16,106.59,249.48,Single-ply,SBD,M
Boys,52,3,Mason Johnson,Gatesville,43.36,79.38,47.63,77.11,204.12,Single-ply,SBD,M
Boys,56,1,Gabriel Spikes,Lago Vista,54.61,142.88,97.52,149.69,390.09,Single-ply,SBD,M
Boys,56,2,Kip Ross,Lago Vista,55.61,113.4,81.65,149.69,344.73,Single-ply,SBD,M
Boys,56,3,Wren Bagley,Salado,55.52,115.67,74.84,142.88,333.39,Single-ply,SBD,M
Boys,56,4,Avery Rodriguez,Cameron Yoe,53.43,106.59,70.31,142.88,319.78,Single-ply,SBD,M
Boys,56,5,Justin Dunivant,Little River Academy,55.61,113.4,70.31,136.08,319.78,Single-ply,SBD,M
Boys,56,6,Travis Potter,Gatesville,51.89,129.27,61.23,120.2,310.71,Single-ply,SBD,M
Boys,56,7,Christian Rokes,Franklin,53.43,124.74,65.77,117.93,308.44,Single-ply,SBD,M
Boys,56,8,Bryan McNeill,Rogers,52.62,102.06,68.04,136.08,306.17,Single-ply,SBD,M
Boys,56,9,Dalton Glover,Little River Academy,55.16,99.79,65.77,129.27,294.84,Single-ply,SBD,M
Boys,56,10,Evan Barabas,Little River Academy,55.16,79.38,40.82,95.25,215.46,Single-ply,SBD,M
Boys,60,1,Isaiah Mesa,Taylor,59.15,151.95,122.47,176.9,451.32,Single-ply,SBD,M
Boys,60,2,Treyton Bates,Little River Academy,59.65,113.4,63.5,117.93,294.84,Single-ply,SBD,M
Boys,60,3,Coty Blair,Rogers,58.6,92.99,63.5,115.67,272.16,Single-ply,SBD,M
Boys,67.5,1,Lorenzo Sanchez,Taylor,66.5,206.38,124.74,217.72,548.85,Single-ply,SBD,M
Boys,67.5,2,Connor Reighly,Lago Vista,65.77,165.56,77.11,172.37,415.04,Single-ply,SBD,M
Boys,67.5,3,Matthew Kocian,Taylor,67.13,161.03,90.72,145.15,396.89,Single-ply,SBD,M
Boys,67.5,4,Bryce McEndree,Salado,63.96,147.42,90.72,136.08,374.21,Single-ply,SBD,M
Boys,67.5,5,Gavin Freeman,Little River Academy,66.54,138.35,68.04,138.35,344.73,Single-ply,SBD,M
Boys,67.5,6,Hunter York,Little River Academy,67.04,124.74,70.31,149.69,344.73,Single-ply,SBD,M
Boys,67.5,7,Alex Auiizlon,Cameron Yoe,66.41,120.2,65.77,145.15,331.12,Single-ply,SBD,M
Boys,67.5,DQ,Jeffrey Shonkwiler,Gatesville,60.6,111.13,,124.74,,Single-ply,SBD,M
Boys,75,1,Daniel Hernandez,Taylor,74.57,235.87,120.2,192.78,548.85,Single-ply,SBD,M
Boys,75,2,Kaden Trice,Salado,71.12,204.12,102.06,195.04,501.22,Single-ply,SBD,M
Boys,75,3,Tyler Stairs,Salado,74.84,176.9,111.13,210.92,498.95,Single-ply,SBD,M
Boys,75,4,Dylan Hines,Lago Vista,74.66,192.78,97.52,206.38,496.68,Single-ply,SBD,M
Boys,75,5,Moe Bryson,Lago Vista,72.48,158.76,90.72,195.04,444.52,Single-ply,SBD,M
Boys,75,6,Tydrick Williams,Cameron Yoe,72.85,163.29,108.86,163.29,435.45,Single-ply,SBD,M
Boys,75,7,Jacob Williams,Gatesville,74.84,165.56,102.06,165.56,433.18,Single-ply,SBD,M
Boys,75,8,Brandon McEndree,Salado,67.86,154.22,86.18,167.83,408.23,Single-ply,SBD,M
Boys,75,9,Taylor Sands,Little River Academy,73.39,149.69,90.72,165.56,405.97,Single-ply,SBD,M
Boys,75,10,Luke Whiteley,Little River Academy,74.21,115.67,95.25,161.03,371.95,Single-ply,SBD,M
Boys,75,11,Christian Yannis,Taylor,70.76,117.93,77.11,158.76,353.8,Single-ply,SBD,M
Boys,75,12,Colton Vanza,Little River Academy,74.66,127.01,81.65,129.27,337.93,Single-ply,SBD,M
Boys,75,13,Bryce Bowling,Little River Academy,74.43,124.74,63.5,122.47,310.71,Single-ply,SBD,M
Boys,75,14,John Santos,Cameron Yoe,73.84,106.59,63.5,131.54,301.64,Single-ply,SBD,M
Boys,75,15,Landon Anderson,Cameron Yoe,69.13,97.52,,133.81,231.33,Single-ply,SD,M
Boys,82.5,1,Everado Araujo,Taylor,80.2,249.48,145.15,247.21,641.83,Single-ply,SBD,M
Boys,82.5,2,Hunter Douzat,Little River Academy,76.38,217.72,133.81,213.19,564.72,Single-ply,SBD,M
Boys,82.5,3,Cody Carrow,Lago Vista,81.47,197.31,145.15,210.92,553.38,Single-ply,SBD,M
Boys,82.5,4,Ryan Hill,Lago Vista,75.75,206.38,131.54,188.24,526.17,Single-ply,SBD,M
Boys,82.5,5,Lance Spakes,Salado,80.56,217.72,113.4,192.78,523.9,Single-ply,SBD,M
Boys,82.5,6,Jesus Oranday,Taylor,77.84,201.85,113.4,188.24,503.49,Single-ply,SBD,M
Boys,82.5,7,Tristian Moore,Franklin,75.39,170.1,113.4,154.22,437.72,Single-ply,SBD,M
Boys,82.5,DQ,David Kamas,Franklin,77.66,163.29,99.79,,,Single-ply,SBD,M
Boys,90,1,Chris Hatch,Taylor,85.37,226.8,158.76,217.72,603.28,Single-ply,SBD,M
Boys,90,2,Blake Carr,Lago Vista,89.63,197.31,115.67,192.78,505.76,Single-ply,SBD,M
Boys,90,3,Cortney Young #2,Rogers,82.46,190.51,97.52,188.24,476.27,Single-ply,SBD,M
Boys,90,4,Bob Cunningham,Salado,89.45,176.9,102.06,183.7,462.66,Single-ply,SBD,M
Boys,90,5,Darren Didanato,Lago Vista,89.18,161.03,92.99,151.95,405.97,Single-ply,SBD,M
Boys,90,6,Martin Navarrete,Taylor,84.28,154.22,88.45,151.95,394.63,Single-ply,SBD,M
Boys,90,7,Connor Laughrin,Gatesville,89.09,154.22,79.38,131.54,365.14,Single-ply,SBD,M
Boys,90,8,Colton Hanacik,Taylor,88.81,95.25,70.31,131.54,297.1,Single-ply,SBD,M
Boys,100,1,Sam Jackson,Gatesville,99.43,226.8,140.61,204.12,571.53,Single-ply,SBD,M
Boys,100,2,Bobby Graham,Franklin,95.98,213.19,149.69,204.12,566.99,Single-ply,SBD,M
Boys,100,3,Ethan Brown,Little River Academy,99.61,183.7,124.74,215.46,523.9,Single-ply,SBD,M
Boys,100,4,Chandler Strmiska,Little River Academy,99.11,188.24,136.08,188.24,512.56,Single-ply,SBD,M
Boys,100,5,Anthony Stokley,Franklin,94.71,167.83,115.67,154.22,437.72,Single-ply,SBD,M
Boys,100,6,Juan Castillo,Salado,96.16,145.15,90.72,174.63,410.5,Single-ply,SBD,M
Boys,100,7,Diego Contreras,Franklin,93.35,154.22,74.84,147.42,376.48,Single-ply,SBD,M
Boys,100,8,Jacob Snoddy,Gatesville,98.7,142.88,92.99,133.81,369.68,Single-ply,SBD,M
Boys,100,DQ,Cole Tarver,Franklin,97.61,161.03,,127.01,,Single-ply,SBD,M
Boys,110,1,Paul Dominguez,Taylor,109.5,294.84,206.38,231.33,732.55,Single-ply,SBD,M
Boys,110,2,Michael Els,Lago Vista,100.7,233.6,170.1,210.92,614.62,Single-ply,SBD,M
Boys,110,3,Zach Solano,Rogers,100.15,226.8,136.08,183.7,546.58,Single-ply,SBD,M
Boys,110,4,Kavan Dooley,Franklin,109.32,174.63,92.99,154.22,421.84,Single-ply,SBD,M
Boys,110,5,Levi Libhart,Rogers,102.24,170.1,92.99,156.49,419.57,Single-ply,SBD,M
Boys,125,1,Brandon Taylor,Gatesville,111.31,258.55,147.42,272.16,678.12,Single-ply,SBD,M
Boys,125,2,Blake Johnson,Franklin,124.65,278.96,149.69,242.67,671.32,Single-ply,SBD,M
Boys,125,3,Chris Bullington,Gatesville,115.94,258.55,156.49,208.65,623.69,Single-ply,SBD,M
Boys,125,4,Kellan Anderson,Rogers,113.4,190.51,90.72,192.78,474,Single-ply,SBD,M
Boys,125,5,Dortavis Lewis,Cameron Yoe,115.76,185.97,102.06,170.1,458.13,Single-ply,SBD,M
Boys,125,6,Adrian Lewis,Cameron Yoe,122.74,163.29,113.4,154.22,430.91,Single-ply,SBD,M
Boys,125,7,Jim Hitchcock,Gatesville,116.75,158.76,92.99,154.22,405.97,Single-ply,SBD,M
Boys,125,8,Hayden Frincke,Little River Academy,121.61,136.08,90.72,138.35,365.14,Single-ply,SBD,M
Boys,125,9,Marc Neaves,Rogers,116.57,140.61,79.38,136.08,356.07,Single-ply,SBD,M
Boys,125+,1,Jonah Bassa,Salado,146.33,249.48,124.74,217.72,591.94,Single-ply,SBD,M
Boys,125+,2,Ethan Mendoza,Rogers,125.74,224.53,122.47,181.44,528.44,Single-ply,SBD,M
Boys,125+,3,Brian McDonald,Cameron Yoe,130.82,158.76,74.84,147.42,381.02,Single-ply,SBD,M
