Place,Event,Equipment,WeightClassKg,Sex,Name,CyrillicName,BirthDay,Division,BodyweightKg,Squat1Kg,Squat2Kg,Squat3Kg,Squat4Kg,Best3SquatKg,Bench1Kg,Bench2Kg,Bench3Kg,Bench4Kg,Best3BenchKg,Deadlift1Kg,Deadlift2Kg,Deadlift3Kg,Deadlift4Kg,Best3DeadliftKg,TotalKg
DQ,S,Wraps,75,M,Azamat Zhashuev,Азамат Жашуев,1994-05-06,Teen 18-19,71.55,-120,-120,-120,,,,,,,,,,,,,
1,S,Wraps,110,M,Yashar Shavoev,Яшар Шавоев,1986-10-02,Open,108.35,230,240,250,,250,,,,,,,,,,,250
1,D,Raw,60,F,Yuliya Bakhir,Юлия Бахир,1984-02-18,Open,58,,,,,,,,,,,180,195,-200,,195,195
1,D,Raw,75,F,Elena Povolotskaya,Елена Поволоцкая,1978-02-16,Open,71.4,,,,,,,,,,,170,180,190,-200,190,190
1,D,Raw,125,M,Denis Makeev,Денис Макеев,1983-04-22,Open,122.3,,,,,,,,,,,290,307.5,,,307.5,307.5
1,SBD,Wraps,44,F,Lilya Eminova,Лиля Эминова,1992-03-06,Junior,44,50,55,57.5,,57.5,27.5,30,32.5,,32.5,80,85,87.5,,87.5,177.5
1,SBD,Wraps,52,F,Olga Mikhaylova,Ольга Михайлова,1971-12-14,Masters 40-49,51.75,97.5,-102.5,105,,105,60,62.5,-65,,62.5,140,-147.5,-147.5,,140,307.5
1,SBD,Wraps,52,F,Olga Mikhaylova,Ольга Михайлова,1971-12-14,Open,51.75,97.5,-102.5,105,,105,60,62.5,-65,,62.5,140,-147.5,-147.5,,140,307.5
1,SBD,Wraps,60,F,Yuliya Bakhir,Юлия Бахир,1984-02-18,Open,58,115,120,125,,125,95,-100,-100,,95,180,195,-200,,195,415
2,SBD,Wraps,60,F,Irina Kolotygina,Ирина Колотыгина,1984-01-29,Open,58.8,-80,80,-90,,80,-50,50,-55,,50,95,105,110,,110,240
1,SBD,Wraps,67.5,F,Nadezhda Marochkina,Надежда Марочкина,1957-02-07,Masters 50-59,67.2,85,-90,90,,90,50,-55,55,,55,95,100,-105,,100,245
1,SBD,Wraps,60,M,Atmir Gekkiev,Атмир Геккиев,1993-10-25,Teen 18-19,59.3,125,-130,-135,,125,80,87.5,90,,90,-125,127.5,135,,135,350
1,SBD,Wraps,67.5,M,Aleksandr Dambinov,Александр Дамбинов,1936-03-12,Masters 70-79,64.1,70,82.5,90,,90,55,62.5,,,62.5,140,150,152.5,,152.5,305
1,SBD,Wraps,75,M,Samral Magamedli,Самрал Магамедли,1993-02-15,Junior,72.3,135,145,-155,,145,115,125,-127.5,,125,170,185,,,185,455
1,SBD,Wraps,75,M,Soslan Eloev,Сослан Елоев,1988-03-02,Open,74.8,-160,160,-170,,160,110,120,125,,125,190,200,210,,210,495
1,SBD,Wraps,82.5,M,Arkadiy Shalokha,Аркадий Шалоха,1983-02-28,Open,79,260,-267.5,272.5,,272.5,180,187.5,-192.5,,187.5,280,-285,,,280,740
2,SBD,Wraps,82.5,M,Artur Shuvaev,Артур Шуваев,1976-05-07,Open,77.3,200,210,-215,,210,140,152.5,-155,,152.5,200,-215,-215,,200,562.5
3,SBD,Wraps,82.5,M,Roman Durnov,Роман Дурнов,1986-09-23,Open,82.5,200,-210,-210,,200,-145,-145,145,,145,210,-220,-220,,210,555
1,SBD,Wraps,82.5,M,Nikolay Korshunov,Николай Коршунов,1995-03-07,Teen 18-19,81.4,150,160,,,160,110,117.5,-122.5,,117.5,170,190,-195,,190,467.5
1,SBD,Wraps,90,M,Sergey Talalaev,Сергей Талалаев,1968-09-07,Masters 40-49,89.8,170,185,195,,195,145,155,160,,160,210,230,240,,240,595
1,SBD,Wraps,100,M,Aleksandr Inzhievskiy,Александр Инжиевский,1992-03-04,Junior,98.1,240,250,255,,255,-140,140,-145,,140,250,265,-285,,265,660
2,SBD,Wraps,100,M,Aleksey Sova,Алексей Сова,1991-09-22,Junior,94.9,200,215,220,,220,130,145,147.5,,147.5,200,235,240,,240,607.5
3,SBD,Wraps,100,M,Grigoriy Bebenin,Григорий Бебенин,1993-04-02,Junior,97.8,190,202.5,210,,210,147.5,155,162.5,,162.5,232.5,-250,-250,,232.5,605
1,SBD,Wraps,100,M,Evgeniy Byzov,Евгений Бызов,1970-10-06,Masters 40-49,99.55,-160,160,-170,,160,95,105,112.5,,112.5,160,180,-190,,180,452.5
1,SBD,Wraps,100,M,Aslambek Abaev,Асламбек Абаев,1959-06-28,Masters 50-59,96.65,250,270,,,270,190,200,,,200,250,-265,,,250,720
1,SBD,Wraps,100,M,Aslambek Abaev,Асламбек Абаев,1959-06-28,Open,96.65,250,270,,,270,190,200,,,200,250,-265,,,250,720
1,SBD,Wraps,100,M,Ilya Baranov,Илья Баранов,1994-05-23,Teen 18-19,92.4,160,170,-180,,170,115,125,130,,130,170,190,-200,,190,490
1,SBD,Wraps,110,M,Aleksandr Danshin,Александр Даньшин,1991-09-11,Junior,109.2,260,-270,-270,,260,170,177.5,-180,,177.5,255,265,275,,275,712.5
1,SBD,Wraps,110,M,Vladislav Siyanovich,Владислав Сиянович,1972-04-20,Masters 40-49,102.8,230,242.5,252.5,,252.5,150,162.5,167.5,,167.5,250,260,-265,,260,680
1,SBD,Wraps,110,M,Dmitriy Tarasov,Дмитрий Тарасов,1981-12-21,Open,106,260,-280,285,,285,200,210,215,,215,-310,-310,310,,310,810
2,SBD,Wraps,110,M,Viktor Vodovskov,Виктор Водовсков,1982-10-22,Open,105.7,270,290,-300,,290,140,150,160,,160,270,290,300,,300,750
3,SBD,Wraps,110,M,Pavel Ivanilov,Павел Иванилов,1988-04-07,Open,107.05,-210,210,-220,,210,-155,155,160,,160,210,220,230,,230,600
1,SBD,Wraps,125,M,Vitaliy Makagonov,Виталий Макагонов,1964-02-03,Masters 40-49,113.7,220,230,250,,250,180,190,200,,200,240,250,260,,260,710
1,SBD,Wraps,125,M,Stanislav Shvetsov,Станислав Швецов,1988-02-08,Open,113.15,310,325,-340,,325,220,230,240,,240,310,325,340,,340,905
2,SBD,Wraps,125,M,Sergey Luchenkov,Сергей Лученков,1977-05-24,Open,123.5,250,-270,,,250,210,220,225,,225,290,-300,-300,,290,765
1,SBD,Wraps,140,M,Vladislav Zonenko,Владислав Зоненко,1975-06-09,Open,125.6,230,240,252.5,,252.5,180,-200,205,,205,240,260,-275,,260,717.5
1,D,Multi-ply,75,F,Susana Sogomonyan,Сусана Согомонян,1985-12-27,Amateur Open,74.6,,,,,,,,,,,125,135,140,,140,140
1,SBD,Multi-ply,67.5,F,Aliya Khakimova,Алия Хакимова,1986-11-21,Amateur Open,66.2,165,180,185,,185,85,-90,-90,,85,165,175,,,175,445
1,SBD,Multi-ply,67.5,F,Alena Baturina,Алена Батурина,1994-10-03,Amateur Teen 18-19,67.4,170,190,-200,,190,100,105,-110,,105,140,150,160,,160,455
1,SBD,Multi-ply,75,F,Vasilina Avdeenko,Василина Авдеенко,1983-08-19,Amateur Open,70,200,220,-240,,220,70,77.5,-82.5,,77.5,125,140,-162.5,,140,437.5
1,SBD,Multi-ply,90,M,Evgeniy Solovev,Евгений Соловьев,1988-09-20,Amateur Open,87.95,280,305,317.5,,317.5,180,-185,-187.5,,180,245,255,-262.5,,255,752.5
DQ,SBD,Multi-ply,100,M,Nikolay Masechko,Николай Масечко,1992-06-15,Amateur Junior,98.3,-210,220,-240,,220,-150,-150,-150,,,,,,,,
1,SBD,Multi-ply,100,M,Andrey Kirindyasov,Андрей Кириндясов,1988-03-20,Amateur Open,91.25,-280,-280,280,,280,-210,-210,210,,210,200,220,,,220,710
2,SBD,Multi-ply,100,M,Aleksandr Kalinin,Александр Калинин,1975-05-07,Amateur Open,99.4,200,225,-240,,225,150,-160,-160,,150,215,235,-250,,235,610
1,SBD,Multi-ply,140,M,Vladimir Blinkov,Владимир Блинков,1978-11-03,Amateur Open,129.1,400,430,,,430,230,237.5,,,237.5,310,-330,332.5,,332.5,1000
1,S,Multi-ply,100,M,Pavel Mitrofanov,Павел Митрофанов,1983-08-12,Open,97.15,320,350,365,,365,,,,,,,,,,,365
1,S,Multi-ply,125,M,Aleksandr Mitrofanov,Александр Митрофанов,1985-12-29,Open,112.75,400,420,-441,,420,,,,,,,,,,,420
1,D,Multi-ply,75,M,Vladimir Afonin,Владимир Афонин,1945-06-09,Masters 60-69,69.05,,,,,,,,,,,180,190,-200,,190,190
1,D,Multi-ply,100,M,Andrey Sizov,Андрей Сизов,1968-01-29,Masters 40-49,93.6,,,,,,,,,,,330,340,-352.5,,340,340
1,D,Multi-ply,125,M,Aleksandr Mitrofanov,Александр Митрофанов,1985-12-29,Open,112.75,,,,,,,,,,,330,-350,-350,,330,330
1,SBD,Multi-ply,75,M,Aleksey Shirobokov,Алексей Широбоков,1991-05-23,Junior,71.4,190,210,220,,220,140,150,160,,160,200,220,-235,,220,600
1,SBD,Multi-ply,75,M,Ilya Kokorev,Илья Кокорев,1973-01-19,Masters 40-49,74.95,-330,330,-345,,330,-230,237.5,-247.5,,237.5,252.5,-272.5,-272.5,,252.5,820
DQ,SBD,Multi-ply,75,M,Vladimir Afonin,Владимир Афонин,1945-06-09,Masters 60-69,69.05,150,160,-165,,160,-115,-115,-115,,,-180,,,,,
1,SBD,Multi-ply,75,M,Ilya Kokorev,Илья Кокорев,1973-01-19,Open,74.95,-330,330,-345,,330,-230,237.5,-247.5,,237.5,252.5,-272.5,-272.5,,252.5,820
1,SBD,Multi-ply,82.5,M,Kaplan Tlevtsezhev,Каплан Тлевцежев,1956-02-13,Masters 50-59,82.5,190,200,,,200,110,,,,110,200,210,,,210,520
1,SBD,Multi-ply,82.5,M,Ivan Semenikhin,Иван Семенихин,1991-03-30,Open,78.5,245,-260,260,,260,182.5,-190,-190,,182.5,190,200,-210,,200,642.5
1,SBD,Multi-ply,90,M,Shamal Murzabekov,Шамал Мурзабеков,1991-02-18,Junior,84.3,180,210,-260,,210,-140,140,152.5,,152.5,220,240,-255,,240,602.5
1,SBD,Multi-ply,90,M,Vladimir Zhabin,Владимир Жабин,1980-06-27,Open,89.9,330,352.5,362.5,,362.5,210,220,230,,230,-295,-295,295,,295,887.5
1,SBD,Multi-ply,100,M,Andrey Sizov,Андрей Сизов,1968-01-29,Masters 40-49,93.6,-330,330,350,,350,200,210,-220,,210,330,340,-352.5,,340,900
1,SBD,Multi-ply,100,M,Pavel Mitrofanov,Павел Митрофанов,1983-08-12,Open,97.15,320,350,365,,365,-230,230,250,,250,280,295,-305,,295,910
DQ,SBD,Multi-ply,100,M,Evgeniy Khalyavka,Евгений Халявка,1988-04-25,Open,97.25,-280,,-280,,,-200,,,,,-300,,,,,
1,SBD,Multi-ply,125,M,Vitaliy Makagonov,Виталий Макагонов,1964-02-03,Masters 40-49,114.75,280,300,320,,320,220,235,250,,250,250,-260,,,250,820
1,SBD,Multi-ply,125,M,Aleksandr Mitrofanov,Александр Митрофанов,1985-12-29,Open,112.75,400,420,-441,,420,230,250,260,,260,330,-350,-350,,330,1010
1,SBD,Multi-ply,140+,M,Igor Nastynov,Игорь Настынов,1961-03-14,Masters 50-59,143.15,310,-360,-410,,310,170,195,,,195,250,300,,,300,805
1,SBD,Multi-ply,140+,M,Igor Nastynov,Игорь Настынов,1961-03-14,Open,143.15,310,-360,-410,,310,170,195,,,195,250,300,,,300,805
1,S,Wraps,60,F,Tatyana Ukhlina,Татьяна Ухлина,1971-07-19,Amateur Masters 40-49,58.45,100,110,-117.5,,110,,,,,,,,,,,110
1,S,Wraps,60,F,Tatyana Ukhlina,Татьяна Ухлина,1971-07-19,Amateur Open,58.45,100,110,-117.5,,110,,,,,,,,,,,110
1,S,Wraps,75,M,Valeriy Korepanov,Валерий Корепанов,1966-10-17,Amateur Masters 40-49,74.8,155,165,-170,,165,,,,,,,,,,,165
1,S,Wraps,90,M,Vladimir Ivantsov,Владимир Иванцов,1985-04-23,Amateur Open,90,240,250,-255,,250,,,,,,,,,,,250
1,S,Wraps,100,M,Mikhail Bobkov,Михаил Бобков,1947-11-21,Amateur Masters 60-69,93.05,185,205,,,205,,,,,,,,,,,205
1,S,Wraps,110,M,Evgeniy Kochnev,Евгений Кочнев,1965-09-19,Amateur Masters 40-49,109.35,190,200,210,,210,,,,,,,,,,,210
1,D,Raw,52,F,Tatyana Dzhanpoladova,Татьяна Джанполадова,1984-09-15,Amateur Open,51.8,,,,,,,,,,,90,97.5,102.5,,102.5,102.5
1,D,Raw,60,F,Elizaveta Golumbovskaya,Елизавета Голумбовская,1989-10-27,Amateur Junior,58.15,,,,,,,,,,,80,90,100,,100,100
1,D,Raw,60,F,Tatyana Ukhlina,Татьяна Ухлина,1971-07-19,Amateur Masters 40-49,58.45,,,,,,,,,,,110,117.5,120,,120,120
1,D,Raw,60,F,Tatyana Ukhlina,Татьяна Ухлина,1971-07-19,Amateur Open,58.45,,,,,,,,,,,110,117.5,120,,120,120
1,D,Raw,90,M,Vasiliy Zotin,Василий Зотин,1960-05-13,Amateur Masters 50-59,88.45,,,,,,,,,,,140,170,180,,180,180
1,D,Raw,90,M,Aleksey Zotov,Алексей Зотов,1989-03-26,Amateur Open,88.9,,,,,,,,,,,245,255,-257.5,,255,255
1,D,Raw,100,M,Aleksandr Seliverstov,Александр Селиверстов,1954-02-21,Amateur Masters 50-59,97.8,,,,,,,,,,,225,240,-242.5,,240,240
1,D,Raw,110,M,Aleksandr Tsygankov,Александр Цыганков,1965-07-05,Amateur Masters 40-49,109.3,,,,,,,,,,,250,265,280,,280,280
1,D,Raw,110,M,Aleksandr Tsygankov,Александр Цыганков,1965-07-05,Amateur Open,109.3,,,,,,,,,,,250,265,280,,280,280
2,D,Raw,110,M,Nikolay Otnoshenko,Николай Отношенко,1975-12-08,Amateur Open,109.45,,,,,,,,,,,120,150,170,,170,170
1,SBD,Wraps,52,F,Darya Spirina,Дарья Спирина,1995-01-20,Amateur Teen 18-19,52,85,95,100,102.5,100,50,-52.5,-52.5,,50,110,120,127.5,,127.5,277.5
1,SBD,Wraps,60,F,Tatyana Ukhlina,Татьяна Ухлина,1971-07-19,Amateur Masters 40-49,58.45,100,110,-117.5,,110,55,60,-65,,60,110,117.5,120,,120,290
1,SBD,Wraps,60,F,Yuliana Krupova,Юлиана Крупова,1984-09-10,Amateur Open,58.65,97.5,105,-112.5,,105,60,65,-67.5,,65,120,127.5,130,,130,300
2,SBD,Wraps,60,F,Tatyana Ukhlina,Татьяна Ухлина,1971-07-19,Amateur Open,58.45,100,110,-117.5,,110,55,60,-65,,60,110,117.5,120,,120,290
1,SBD,Wraps,82.5,F,Olga Kazankova,Ольга Казанкова,1979-06-26,Amateur Open,78.1,120,130,-135,,130,-80,80,-95,,80,130,-145,150,,150,360
1,SBD,Wraps,52,M,Sergey Kutvinov,Сергей Кутвинов,1993-12-24,Amateur Teen 18-19,52,105,-115,-115,,105,70,-75,-75,,70,125,130,140.5,,140.5,315.5
1,SBD,Wraps,60,M,Andrey Kalinin,Андрей Калинин,1990-03-09,Amateur Junior,58.8,135,140,-145,,140,90,95,100,,100,170,175,180,,180,420
1,SBD,Wraps,60,M,Andrey Kutvinov,Андрей Кутвинов,1993-12-24,Amateur Teen 18-19,56.65,-115,115,122.5,,122.5,85,-90,-92.5,,85,135,142.5,150,,150,357.5
1,SBD,Wraps,67.5,M,Pavel Vedeneev,Павел Веденеев,1987-12-14,Amateur Open,64.4,155,167.5,170,,170,95,100,-102.5,,100,200,210,220,,220,490
1,SBD,Wraps,67.5,M,Arsen Kalendzhyan,Арсен Календжян,1996-09-14,Amateur Teen 16-17,65.2,-120,120,125,,125,80,90,100,,100,140,150,170,,170,395
DQ,SBD,Wraps,75,M,Zakhar Kuimov,Захар Куимов,1993-04-04,Amateur Junior,72.9,-185,-185,-185,,,-110,,,,,-207.5,,,,,
1,SBD,Wraps,75,M,Dmitriy Vasilvitskiy,Дмитрий Васильвицкий,1966-02-14,Amateur Masters 40-49,74.05,145,155,162.5,,162.5,135,140,-146,,140,180,190,-195,,190,492.5
2,SBD,Wraps,75,M,Valeriy Korepanov,Валерий Корепанов,1966-10-17,Amateur Masters 40-49,74.8,155,165,-170,,165,110,-120,-120,,110,180,190,200,,200,475
1,SBD,Wraps,75,M,Aleksey Vikhrov,Алексей Вихров,1988-10-12,Amateur Open,74.75,162.5,-175,175,,175,110,117.5,-122.5,,117.5,212.5,230,240,,240,532.5
2,SBD,Wraps,75,M,Valeriy Korepanov,Валерий Корепанов,1966-10-17,Amateur Open,74.8,155,165,-170,,165,110,-120,-120,,110,180,190,200,,200,475
3,SBD,Wraps,75,M,Georgiy Partalyan,Георгий Парталян,1983-11-03,Amateur Open,68.65,-160,160,-170,,160,110,115,-120,,115,160,170,-175,,170,445
1,SBD,Wraps,75,M,Vadim Vareldzhyan,Вадим Варельджян,1996-10-03,Amateur Teen 16-17,68.7,-80,80,90,,90,70,-80,80,,80,90,100,115,,115,285
1,SBD,Wraps,82.5,M,Vladimir Pryazhentsev,Владимир Пряженцев,1965-12-04,Amateur Masters 40-49,75.95,-170,170,182.5,,182.5,117.5,125,130,,130,192.5,215,222.5,,222.5,535
1,SBD,Wraps,82.5,M,Rafael Buklov,Рафаэль Буклов,1985-07-18,Amateur Open,82,200,210,220,,220,120,130,135,,135,-210,230,-240,,230,585
1,SBD,Wraps,90,M,Vladimir Ivantsov,Владимир Иванцов,1985-04-23,Amateur Open,90,240,250,-255,,250,150,157.5,162.5,,162.5,230,240,245,,245,657.5
2,SBD,Wraps,90,M,Aleksey Zotov,Алексей Зотов,1989-03-26,Amateur Open,88.9,195,202.5,,,202.5,147.5,152.5,-155,,152.5,245,255,-257.5,,255,610
1,SBD,Wraps,100,M,Roman Rudakov,Роман Рудаков,1991-01-02,Amateur Junior,99.75,205,220,232.5,,232.5,-135,135,-142.5,,135,210,225,232.5,,232.5,600
1,SBD,Wraps,100,M,Aleksandr Ilin,Александр Ильин,1964-11-20,Amateur Masters 40-49,97.55,190,200,205,,205,147.5,155,157.5,,157.5,240,250,257.5,,257.5,620
1,SBD,Wraps,100,M,Vladimir Zakharov,Владимир Захаров,1955-07-07,Amateur Masters 50-59,99.6,190,200,205,,205,160,170,175,,175,190,200,210,,210,590
2,SBD,Wraps,100,M,Aleksandr Seliverstov,Александр Селиверстов,1954-02-21,Amateur Masters 50-59,97.8,-160,160,175,,175,100,105,-110,,105,225,240,-242.5,,240,520
1,SBD,Wraps,100,M,Mikhail Bobkov,Михаил Бобков,1947-11-21,Amateur Masters 60-69,93.05,185,205,,,205,75,-85,85,,85,190,210,220,,220,510
1,SBD,Wraps,100,M,Konstantin Komelin,Константин Комелин,1986-03-31,Amateur Open,99.2,240,250,255,,255,150,-160,,,150,280,290,300,,300,705
2,SBD,Wraps,100,M,Andrey Malenkikh,Андрей Маленьких,1989-01-20,Amateur Open,98.35,250,260,-270,,260,-155,155,162.5,,162.5,235,250,265,,265,687.5
3,SBD,Wraps,100,M,Aleksandr Belikov,Александр Беликов,1974-05-31,Amateur Open,97.7,180,185,190,,190,150,-155,-155,,150,220,225,230,,230,570
1,SBD,Wraps,100,M,Dmitriy Kurok,Дмитрий Курок,1993-10-06,Amateur Teen 18-19,92.25,180,190,-200,,190,130,142.5,-150,,142.5,205,220,225,,225,557.5
1,SBD,Wraps,110,M,Valeriy Markashov,Валерий Маркашов,1952-07-18,Amateur Masters 60-69,100.3,135,145,-150,,145,90,95,100,,100,160,170,-180,,170,415
1,SBD,Wraps,110,M,Oleg Misyaev,Олег Мисяев,1980-07-14,Amateur Open,105.4,-255,270,-285,,270,175,190,195,,195,280,295,310,,310,775
1,SBD,Wraps,125,M,Aleksandr Lutskevich,Александр Луцкевич,1972-09-10,Amateur Masters 40-49,114.5,260,-275,275,,275,160,170,-177.5,,170,250,-265,265,,265,710
1,SBD,Wraps,125,M,Evgeniy Kiselev,Евгений Киселев,1978-06-04,Amateur Open,122,260,270,-275,,270,190,200,-205,,200,280,-300,,,280,750
2,SBD,Wraps,125,M,Yuriy Belyaev,Юрий Беляев,1987-02-04,Amateur Open,117.7,250,265,275,,275,150,165,170,,170,250,255,260,,260,705
1,B,Raw,44,F,Evgeniya Chistik,Евгения Чистик,1984-11-14,Amateur Open,41.9,,,,,,40,42.5,-45,,42.5,,,,,,42.5
1,B,Raw,52,F,Tatyana Kulagina,Татьяна Кулагина,1972-12-11,Amateur Open,51.65,,,,,,70,75,77.5,-80,77.5,,,,,,77.5
2,B,Raw,52,F,Tatyana Dzhanpoladova,Татьяна Джанполадова,1984-09-15,Amateur Open,51.8,,,,,,60,65,-67.5,,65,,,,,,65
1,B,Raw,56,F,Ekaterina Kalinina,Екатерина Калинина,1998-03-07,Amateur Teen 14-15,53.7,,,,,,25,27.5,-30,,27.5,,,,,,27.5
1,B,Raw,67.5,F,Ekaterina Potapova,Екатерина Потапова,1987-07-04,Amateur Open,67.5,,,,,,30,-35,-35,,30,,,,,,30
1,B,Raw,82.5,F,Olga Kazankova,Ольга Казанкова,1979-06-26,Amateur Open,77.85,,,,,,80,90,-95,,90,,,,,,90
1,B,Raw,52,M,Grigoriy Bubnov,Григорий Бубнов,2002-03-05,Amateur Teen 14-15,39.05,,,,,,30,32.5,35,,35,,,,,,35
1,B,Raw,52,M,Maksim Ibragimov,Максим Ибрагимов,1996-05-15,Amateur Teen 16-17,52,,,,,,60,67.5,72.5,,72.5,,,,,,72.5
1,B,Raw,60,M,Sergey Sultanov,Сергей Султанов,1990-05-23,Amateur Junior,59,,,,,,122.5,-130,135,-142.5,135,,,,,,135
2,B,Raw,60,M,Andrey Larin,Андрей Ларин,1992-01-20,Amateur Junior,59.6,,,,,,92.5,97.5,100,,100,,,,,,100
1,B,Raw,60,M,Shamil Apazov,Шамиль Апазов,1994-05-23,Amateur Open,57.4,,,,,,92.5,97.5,100,,100,,,,,,100
2,B,Raw,60,M,Andrey Larin,Андрей Ларин,1992-01-20,Amateur Open,59.6,,,,,,92.5,97.5,100,,100,,,,,,100
1,B,Raw,60,M,Shamil Apazov,Шамиль Апазов,1994-05-23,Amateur Teen 18-19,57.4,,,,,,92.5,97.5,100,,100,,,,,,100
1,B,Raw,67.5,M,Rudolf Tsvirko,Рудольф Цвирко,1996-04-29,Amateur Teen 16-17,62,,,,,,85,92.5,-97.5,,92.5,,,,,,92.5
1,B,Raw,67.5,M,Sergey Chugurov,Сергей Чугуров,1993-06-22,Amateur Teen 18-19,67.4,,,,,,120,125,-130,,125,,,,,,125
1,B,Raw,75,M,Shakhriyar Guseynli,Шахрияр Гусейнли,1991-10-22,Amateur Junior,72.25,,,,,,142.5,-145,-147.5,,142.5,,,,,,142.5
2,B,Raw,75,M,Mikhail Bronnikov,Михаил Бронников,1993-05-21,Amateur Junior,73.1,,,,,,115,125,130,,130,,,,,,130
DQ,B,Raw,75,M,Levan Peykrishvili,Леван Пейкришвили,1991-08-16,Amateur Junior,73.85,,,,,,-140,-142.5,-142.5,,,,,,,,
1,B,Raw,75,M,Dmitriy Kukharenko,Дмитрий Кухаренко,1969-01-22,Amateur Masters 40-49,73.35,,,,,,165,172.5,-180,,172.5,,,,,,172.5
2,B,Raw,75,M,Dmitriy Vasilvitskiy,Дмитрий Васильвицкий,1966-02-14,Amateur Masters 40-49,73.5,,,,,,137.5,142.5,-147.5,148,142.5,,,,,,142.5
1,B,Raw,75,M,Vladimir Vodyanykh,Владимир Водяных,1953-01-07,Amateur Masters 60-69,71.05,,,,,,127.5,132.5,-135,,132.5,,,,,,132.5
1,B,Raw,75,M,Valeriy Baranov,Валерий Баранов,1940-12-04,Amateur Masters 70-79,72.2,,,,,,87.5,95,-97.5,,95,,,,,,95
1,B,Raw,75,M,Dmitriy Kukharenko,Дмитрий Кухаренко,1969-01-22,Amateur Open,73.35,,,,,,165,172.5,-180,,172.5,,,,,,172.5
2,B,Raw,75,M,Dmitriy Pyzhov,Дмитрий Пыжов,1982-08-01,Amateur Open,75,,,,,,135,145,155,,155,,,,,,155
3,B,Raw,75,M,Dmitriy Vasilvitskiy,Дмитрий Васильвицкий,1966-02-14,Amateur Open,73.5,,,,,,137.5,142.5,-147.5,148,142.5,,,,,,142.5
4,B,Raw,75,M,David Tserikidze,Давид Церикидзе,1981-06-12,Amateur Open,73.85,,,,,,125,135,-145,,135,,,,,,135
DQ,B,Raw,75,M,Nikolay Sidnev,Николай Сиднев,1987-11-20,Amateur Open,73.6,,,,,,-130,-130,-130,,,,,,,,
DQ,B,Raw,75,M,Andrey Evstafev,Андрей Евстафьев,1987-10-06,Amateur Open,74.9,,,,,,-125,-132.5,-132.5,,,,,,,,
1,B,Raw,75,M,Yan Kelep,Ян Келеп,1998-11-25,Amateur Teen 14-15,67.7,,,,,,55,-65,,,55,,,,,,55
1,B,Raw,82.5,M,Boris Arlyukov,Борис Арлюков,1992-12-10,Amateur Junior,81.7,,,,,,125,132.5,-140,,132.5,,,,,,132.5
1,B,Raw,82.5,M,Rishat Fattakhov,Ришат Фаттахов,1967-05-08,Amateur Masters 40-49,81.35,,,,,,135,140,145,,145,,,,,,145
DQ,B,Raw,82.5,M,Aleksandr Gutsevich,Александр Гуцевич,1966-09-23,Amateur Masters 40-49,82.45,,,,,,-135,-137.5,-137.5,,,,,,,,
1,B,Raw,82.5,M,Sergey Rudenko,Сергей Руденко,1959-07-11,Amateur Masters 50-59,80.8,,,,,,147.5,152.5,158.5,160,158.5,,,,,,158.5
1,B,Raw,82.5,M,Kamil Gafarov,Камиль Гафаров,1984-03-23,Amateur Open,81.85,,,,,,170,-180,190,193.5,190,,,,,,190
2,B,Raw,82.5,M,Sergey Rudenko,Сергей Руденко,1959-07-11,Amateur Open,80.8,,,,,,147.5,152.5,158.5,160,158.5,,,,,,158.5
3,B,Raw,82.5,M,Mikhail Kirichenko,Михаил Кириченко,1985-06-08,Amateur Open,80,,,,,,145,155,157.5,,157.5,,,,,,157.5
4,B,Raw,82.5,M,Stepan Pogosyan,Степан Погосян,1985-04-18,Amateur Open,79.2,,,,,,140,-145,-145,,140,,,,,,140
5,B,Raw,82.5,M,Arseniy Fedorov,Арсений Федоров,1997-02-28,Amateur Open,80.5,,,,,,120,130,137.5,,137.5,,,,,,137.5
6,B,Raw,82.5,M,Andrey Lupandin,Андрей Лупандин,1988-08-15,Amateur Open,80.5,,,,,,135,-150,-150,,135,,,,,,135
DQ,B,Raw,82.5,M,Aleksandr Gutsevich,Александр Гуцевич,1966-09-23,Amateur Open,82.45,,,,,,-135,-137.5,-137.5,,,,,,,,
1,B,Raw,82.5,M,Arseniy Fedorov,Арсений Федоров,1997-02-28,Amateur Teen 16-17,80.5,,,,,,120,130,137.5,,137.5,,,,,,137.5
1,B,Raw,90,M,Daniil Simonenko,Даниил Симоненко,1991-03-07,Amateur Junior,90,,,,,,135,-155,155,,155,,,,,,155
1,B,Raw,90,M,Yuriy Rubanov,Юрий Рубанов,1967-11-28,Amateur Masters 40-49,89.65,,,,,,161,162.5,164,,164,,,,,,164
2,B,Raw,90,M,Aleksandr Fedorov,Александр Федоров,1968-06-12,Amateur Masters 40-49,88.6,,,,,,-160,160,-163,,160,,,,,,160
1,B,Raw,90,M,Vasiliy Demchenko,Василий Демченко,1962-10-16,Amateur Masters 50-59,86.4,,,,,,85,90,-95,,90,,,,,,90
1,B,Raw,90,M,Yuriy Veremyanin,Юрий Веремянин,1978-09-03,Amateur Open,87.9,,,,,,165,175,182.5,,182.5,,,,,,182.5
2,B,Raw,90,M,Anton Volodin,Антон Володин,1983-06-26,Amateur Open,86.6,,,,,,160,170,-180,,170,,,,,,170
3,B,Raw,90,M,Umar Dzhunidov,Умар Джунидов,1984-04-15,Amateur Open,90,,,,,,-162.5,170,-185,,170,,,,,,170
4,B,Raw,90,M,Viktor Kudimov,Виктор Кудимов,1983-01-02,Amateur Open,87.85,,,,,,160,165,-170,,165,,,,,,165
5,B,Raw,90,M,Aleksandr Fedorov,Александр Федоров,1968-06-12,Amateur Open,88.6,,,,,,-160,160,-163,,160,,,,,,160
1,B,Raw,100,M,Vladimir Beloglazov,Владимир Белоглазов,1969-02-20,Amateur Masters 40-49,99.3,,,,,,175,180,187.5,,187.5,,,,,,187.5
2,B,Raw,100,M,Yuriy Tereshin,Юрий Терешин,1964-11-19,Amateur Masters 40-49,98.75,,,,,,-150,150,-162.5,,150,,,,,,150
1,B,Raw,100,M,Evgeniy Chernozipunnikov,Евгений Чернозипунников,1956-01-21,Amateur Masters 50-59,95.3,,,,,,105,110,,,110,,,,,,110
1,B,Raw,100,M,Aslambek Nuraliev,Асламбек Нуралиев,1987-12-08,Amateur Open,99.3,,,,,,200,211,-215,,211,,,,,,211
2,B,Raw,100,M,Vladimir Beloglazov,Владимир Белоглазов,1969-02-20,Amateur Open,99.3,,,,,,175,180,187.5,,187.5,,,,,,187.5
3,B,Raw,100,M,Aslanbek Musaev,Асланбек Мусаев,1987-10-16,Amateur Open,99.8,,,,,,170,180,-187.5,,180,,,,,,180
4,B,Raw,100,M,Nikolay Kelep,Николай Келеп,1984-03-17,Amateur Open,93.25,,,,,,175,-185,-185,,175,,,,,,175
5,B,Raw,100,M,Aleksandr Polyakov,Александр Поляков,1988-01-22,Amateur Open,98.95,,,,,,162.5,170,175,,175,,,,,,175
6,B,Raw,100,M,Mikhail Shatunov,Михаил Шатунов,1985-12-23,Amateur Open,96.9,,,,,,150,-155,-155,,150,,,,,,150
7,B,Raw,100,M,Aleksandr Zhukov,Александр Жуков,1983-03-13,Amateur Open,96.05,,,,,,135,142.5,-147.5,,142.5,,,,,,142.5
DQ,B,Raw,100,M,Aleksey Shcherbakov,Алексей Щербаков,1984-06-10,Amateur Open,96.65,,,,,,-155,-162.5,-162.5,,,,,,,,
1,B,Raw,110,M,Ruslan Yafasov,Руслан Яфасов,1971-06-26,Amateur Masters 40-49,109.45,,,,,,170,180,195,,195,,,,,,195
1,B,Raw,110,M,Boris Grabovoy,Борис Грабовой,1956-01-23,Amateur Masters 50-59,108.25,,,,,,110,115,117.5,,117.5,,,,,,117.5
1,B,Raw,110,M,Vitaliy Mordvinov,Виталий Мордвинов,1987-04-24,Amateur Open,109.05,,,,,,205,210,212.5,,212.5,,,,,,212.5
2,B,Raw,110,M,Viskhan Mukuev,Висхан Мукуев,1984-03-04,Amateur Open,102.65,,,,,,200,210,-215,,210,,,,,,210
3,B,Raw,110,M,Aleksandr Chebotarev,Александр Чеботарев,1988-03-26,Amateur Open,106.45,,,,,,200,205,-210,,205,,,,,,205
4,B,Raw,110,M,Vladimir Astakhov,Владимир Астахов,1979-07-11,Amateur Open,108.25,,,,,,180,195,-210,,195,,,,,,195
5,B,Raw,110,M,Aleksandr Fedotov,Александр Федотов,1989-05-16,Amateur Open,108.65,,,,,,175,180,-185,,180,,,,,,180
6,B,Raw,110,M,Roman Kireev,Роман Киреев,1979-10-13,Amateur Open,102,,,,,,160,170,-175,,170,,,,,,170
7,B,Raw,110,M,Yasin Yusufi,Ясин Юсуфи,1987-04-18,Amateur Open,109,,,,,,120,-130,130,,130,,,,,,130
1,B,Raw,125,M,Aleksandr Vasilchenko,Александр Васильченко,1966-03-19,Amateur Masters 40-49,120.55,,,,,,170,175,180,,180,,,,,,180
2,B,Raw,125,M,Evgeniy Gromov,Евгений Громов,1963-08-19,Amateur Masters 40-49,111.1,,,,,,160,165,170,,170,,,,,,170
1,B,Raw,125,M,Dmitriy Bubnov,Дмитрий Бубнов,1973-10-14,Amateur Open,114.65,,,,,,205,215,217.5,,217.5,,,,,,217.5
2,B,Raw,125,M,Aleksandr Andreev,Александр Андреев,1977-03-19,Amateur Open,120.85,,,,,,205,210,217.5,,217.5,,,,,,217.5
3,B,Raw,125,M,Dmitriy Rezaykin,Дмитрий Резайкин,1984-02-12,Amateur Open,123,,,,,,205,212.5,217.5,,217.5,,,,,,217.5
4,B,Raw,125,M,Roman Malimon,Роман Малимон,1974-07-02,Amateur Open,119.65,,,,,,187.5,-190,-192.5,,187.5,,,,,,187.5
5,B,Raw,125,M,Sergey Bolgov,Сергей Болгов,1986-02-20,Amateur Open,124.65,,,,,,-175,180,-185,,180,,,,,,180
6,B,Raw,125,M,Pavel Markin,Павел Маркин,1982-07-24,Amateur Open,115.35,,,,,,-175,-175,175,,175,,,,,,175
1,B,Raw,125,M,Kirill Andreev,Кирилл Андреев,1994-01-08,Amateur Teen 18-19,113.85,,,,,,135,-142.5,145,,145,,,,,,145
1,B,Raw,140,M,Georgiy Pirtskhelava,Георгий Пирцхелава,1991-04-24,Amateur Junior,125.55,,,,,,175,182.5,-187.5,,182.5,,,,,,182.5
1,B,Raw,140,M,Vladimir Simonenko,Владимир Симоненко,1960-09-02,Amateur Masters 50-59,125.5,,,,,,160,-170,170,175,170,,,,,,170
1,B,Raw,140,M,Lecha Serbiev,Леча Сербиев,1984-08-20,Amateur Open,129,,,,,,190,-200,207.5,,207.5,,,,,,207.5
2,B,Raw,140,M,Sergey Andriyashchenko,Сергей Андриященко,1977-08-18,Amateur Open,133.5,,,,,,160,-180,-180,,160,,,,,,160
1,B,Raw,140+,M,Dmitriy Belyy,Дмитрий Белый,1972-04-12,Amateur Masters 40-49,141.5,,,,,,210,215,-220,222.5,215,,,,,,215
1,B,Raw,140+,M,Dmitriy Belyy,Дмитрий Белый,1972-04-12,Amateur Open,141.5,,,,,,210,215,-220,222.5,215,,,,,,215
1,B,Multi-ply,52,F,Tatyana Dzhanpoladova,Татьяна Джанполадова,1984-09-15,Amateur Open,51.8,,,,,,85,90,-92.5,,90,,,,,,90
1,B,Multi-ply,56,F,Ekaterina Puzyrenko,Екатерина Пузыренко,1976-11-24,Amateur Open,54.2,,,,,,90,-95,95,,95,,,,,,95
1,B,Multi-ply,75,M,Artem Kaipov,Артем Каипов,1994-12-09,Amateur Teen 18-19,75,,,,,,-150,-150,150,,150,,,,,,150
1,B,Multi-ply,82.5,M,Vladimir Parshunin,Владимир Паршунин,1991-08-31,Amateur Junior,80.55,,,,,,-177.5,180,-195,,180,,,,,,180
1,B,Multi-ply,82.5,M,Rishat Fattakhov,Ришат Фаттахов,1967-05-08,Amateur Masters 40-49,81.35,,,,,,165,-175,,,165,,,,,,165
1,B,Multi-ply,82.5,M,Kamil Gafarov,Камиль Гафаров,1984-03-23,Amateur Open,81.85,,,,,,210,225,-243.5,,225,,,,,,225
DQ,B,Multi-ply,82.5,M,Dmitriy Apter,Дмитрий Аптер,1975-11-14,Amateur Open,82.15,,,,,,-160,-160,-160,,,,,,,,
1,B,Multi-ply,90,M,Aleksey Zharikov,Алексей Жариков,1971-02-19,Amateur Masters 40-49,87.7,,,,,,190,200,212.5,-220,212.5,,,,,,212.5
1,B,Multi-ply,90,M,Andrey Kirindyasov,Андрей Кириндясов,1988-03-20,Amateur Open,90,,,,,,210,-220,225,,225,,,,,,225
2,B,Multi-ply,90,M,Sergey Kislyakov,Сергей Кисляков,1987-11-04,Amateur Open,88.35,,,,,,210,-215,-222.5,,210,,,,,,210
3,B,Multi-ply,90,M,Denis Eliseev,Денис Елисеев,1981-08-25,Amateur Open,88.7,,,,,,150,160,-180,,160,,,,,,160
1,B,Multi-ply,100,M,Nikolay Masechko,Николай Масечко,1992-06-15,Amateur Junior,98.4,,,,,,130,150,-170,,150,,,,,,150
1,B,Multi-ply,100,M,Evgeniy Chernozipunnikov,Евгений Чернозипунников,1956-01-21,Amateur Masters 50-59,95.3,,,,,,125,-135,-135,,125,,,,,,125
1,B,Multi-ply,100,M,Viktor Mistratov,Виктор Мистратов,1981-02-10,Amateur Open,98.85,,,,,,270,-287.5,-300,,270,,,,,,270
2,B,Multi-ply,100,M,Aleksandr Zhukov,Александр Жуков,1983-03-13,Amateur Open,96.05,,,,,,130,162.5,-182.5,,162.5,,,,,,162.5
1,B,Multi-ply,110,M,Eduard Kesaev,Эдуард Кесаев,1958-10-16,Amateur Masters 50-59,107.6,,,,,,195,-207.5,207.5,,207.5,,,,,,207.5
1,B,Multi-ply,110,M,Aleksandr Maksimushkin,Александр Максимушкин,1950-11-03,Amateur Masters 60-69,109.05,,,,,,202.5,212.5,,,212.5,,,,,,212.5
1,B,Multi-ply,125,M,Aleksandr Ponomarev,Александр Пономарев,1967-02-27,Amateur Masters 40-49,112.85,,,,,,-225,225,-232.5,,225,,,,,,225
1,B,Multi-ply,125,M,Andrey Zapylikhin,Андрей Запылихин,1960-09-07,Amateur Masters 50-59,116.7,,,,,,220,-235,-235,,220,,,,,,220
1,B,Multi-ply,125,M,Nikolay Egorov,Николай Егоров,1978-07-28,Amateur Open,118,,,,,,250,257.5,262.5,,262.5,,,,,,262.5
2,B,Multi-ply,125,M,Anatoliy Panchenko,Анатолий Панченко,1979-11-07,Amateur Open,122.2,,,,,,225,230,-235,,230,,,,,,230
1,B,Multi-ply,140,M,Eduard Smetanin,Эдуард Сметанин,1969-10-15,Amateur Masters 40-49,136.75,,,,,,180,190,-200,,190,,,,,,190
1,B,Raw,44,F,Maryana Avdeenko,Марьяна Авдеенко,2004-01-01,Teen 14-15,37,,,,,,25,32.5,-35,,32.5,,,,,,32.5
1,B,Raw,60,F,Larisa Gvozdeva,Лариса Гвоздева,1965-06-25,Masters 40-49,60,,,,,,95,100,103,,103,,,,,,103
1,B,Raw,60,F,Larisa Gvozdeva,Лариса Гвоздева,1965-06-25,Open,60,,,,,,95,100,103,,103,,,,,,103
1,B,Raw,67.5,F,Nina Mukhortova,Нина Мухортова,1966-09-16,Open,64.9,,,,,,85,90,-97.5,,90,,,,,,90
1,B,Raw,52,M,Ilya Repnitsyn,Илья Репницын,2002-04-29,Teen 14-15,45.6,,,,,,25,27.5,-30,,27.5,,,,,,27.5
1,B,Raw,56,M,Ayub Taymyskhanov,Аюб Таймысханов,1992-10-12,Junior,55.6,,,,,,105,115,120,,120,,,,,,120
1,B,Raw,67.5,M,Khamzat Kasumov,Хамзат Касумов,1984-10-15,Open,67.35,,,,,,175,182.5,-190,190,182.5,,,,,,182.5
2,B,Raw,67.5,M,Samir Mammadov,Самир Маммадов,1981-07-16,Open,67.15,,,,,,170,-175,-182.5,,170,,,,,,170
3,B,Raw,67.5,M,Viktor Galchenkov,Виктор Галченков,1987-01-16,Open,66.9,,,,,,115,-120,-120,,115,,,,,,115
1,B,Raw,67.5,M,Ivan Repnitsyn,Иван Репницын,1998-02-27,Teen 14-15,61.2,,,,,,40,45,-50,,45,,,,,,45
1,B,Raw,75,M,Magamedrasul Bazarganov,Магамедрасул Базарганов,1993-04-05,Junior,73.45,,,,,,145,152.5,-160,,152.5,,,,,,152.5
2,B,Raw,75,M,Igor Krasnopeev,Игорь Краснопеев,1991-02-24,Junior,74.55,,,,,,140,147.5,-155,,147.5,,,,,,147.5
1,B,Raw,75,M,Georgiy Demenev,Георгий Деменев,1987-01-10,Open,74.95,,,,,,170,175,-177.5,,175,,,,,,175
1,B,Raw,82.5,M,Ramzan Yusupov,Рамзан Юсупов,1993-02-22,Junior,80.45,,,,,,160,-177.5,-177.5,,160,,,,,,160
1,B,Raw,82.5,M,Sergey Koshkin,Сергей Кошкин,1971-09-28,Masters 40-49,81.6,,,,,,207.5,217.5,-227.5,,217.5,,,,,,217.5
2,B,Raw,82.5,M,Sergey Khodunov,Сергей Ходунов,1968-10-23,Masters 40-49,81.55,,,,,,175,182.5,190,,190,,,,,,190
3,B,Raw,82.5,M,Vadim Merkulov,Вадим Меркулов,1970-08-08,Masters 40-49,81.55,,,,,,130,140,-147.5,,140,,,,,,140
1,B,Raw,82.5,M,Sergey Koshkin,Сергей Кошкин,1971-09-28,Open,81.6,,,,,,207.5,217.5,-227.5,,217.5,,,,,,217.5
1,B,Raw,82.5,M,Sergey Tynyanskiy,Сергей Тынянский,1995-10-25,Teen 16-17,81.85,,,,,,120,-125,-125,,120,,,,,,120
1,B,Raw,90,M,Idris Kuzaev,Идрис Кузаев,1989-07-21,Junior,88.85,,,,,,220,-227.5,-227.5,,220,,,,,,220
1,B,Raw,90,M,Sergey Grishko,Сергей Гришко,1980-01-07,Open,85.55,,,,,,215,225,230.5,,230.5,,,,,,230.5
2,B,Raw,90,M,Idris Kuzaev,Идрис Кузаев,1989-07-21,Open,88.85,,,,,,220,-227.5,-227.5,,220,,,,,,220
3,B,Raw,90,M,Andrey Utkin,Андрей Уткин,1976-12-21,Open,88.85,,,,,,190,207.5,-210,,207.5,,,,,,207.5
4,B,Raw,90,M,Eduard Galkov,Эдуард Гальков,1975-09-15,Open,89.35,,,,,,197.5,-207.5,,,197.5,,,,,,197.5
5,B,Raw,90,M,Sergey Ipatov,Сергей Ипатов,1987-07-04,Open,83.6,,,,,,170,180,-185,,180,,,,,,180
1,B,Raw,90,M,Vakhtang Shoniya,Вахтанг Шония,1994-07-12,Teen 18-19,84.5,,,,,,-140,140,-150,,140,,,,,,140
1,B,Raw,100,M,Ilya Parakhin,Илья Парахин,1991-08-01,Junior,99.6,,,,,,-170,175,185,,185,,,,,,185
1,B,Raw,100,M,Vladimir Beloglazov,Владимир Белоглазов,1969-02-20,Masters 40-49,100,,,,,,175,185,190,,190,,,,,,190
2,B,Raw,100,M,Aleksey Kunichkin,Алексей Куничкин,1973-04-25,Masters 40-49,99.9,,,,,,160,175,177.5,,177.5,,,,,,177.5
1,B,Raw,100,M,Grigoriy Slipchenko,Григорий Слипченко,1982-11-16,Open,99.9,,,,,,240,250,-252.5,,250,,,,,,250
2,B,Raw,100,M,Konstantin Otavin,Константин Отавин,1973-11-25,Open,100,,,,,,225,235,240,,240,,,,,,240
3,B,Raw,100,M,Andrey Zharenov,Андрей Жаренов,1988-06-27,Open,94.4,,,,,,-210,210,215,,215,,,,,,215
4,B,Raw,100,M,Aleksandr Prozorov,Александр Прозоров,1973-12-12,Open,99.95,,,,,,-200,200,-212.5,,200,,,,,,200
1,B,Raw,110,M,Vyacheslav Rakhmanov,Вячеслав Рахманов,1968-09-10,Masters 40-49,108,,,,,,205,212.5,-220,,212.5,,,,,,212.5
2,B,Raw,110,M,Andrey Lukyanov,Андрей Лукьянов,1969-01-29,Masters 40-49,109.5,,,,,,175,180,-185,,180,,,,,,180
3,B,Raw,110,M,Igor Babushkin,Игорь Бабушкин,1963-10-25,Masters 40-49,109.95,,,,,,165,177.5,-182.5,,177.5,,,,,,177.5
1,B,Raw,110,M,Andrey Litvinenko,Андрей Литвиненко,1962-04-19,Masters 50-59,107.2,,,,,,115,122.5,125,,125,,,,,,125
1,B,Raw,110,M,Valeriy Mikhnev,Валерий Михнев,1985-10-10,Open,107.2,,,,,,230,240,245,,245,,,,,,245
2,B,Raw,110,M,Aleksandr Sykmenev,Александр Сыкменев,1978-06-24,Open,109.7,,,,,,232.5,242.5,-247.5,,242.5,,,,,,242.5
3,B,Raw,110,M,Andrey Skvortsov,Андрей Скворцов,1977-11-25,Open,103.75,,,,,,220,230,232.5,,232.5,,,,,,232.5
4,B,Raw,110,M,Andrey Likhman,Андрей Лихман,1977-05-01,Open,106,,,,,,222.5,227.5,-235,,227.5,,,,,,227.5
5,B,Raw,110,M,Anzor Guzuev,Анзор Гузуев,1988-07-03,Open,108.2,,,,,,202.5,210,-227.5,,210,,,,,,210
6,B,Raw,110,M,Ruben Odabashyan,Рубен Одабашян,1986-08-27,Open,105.65,,,,,,205,-212.5,-215,,205,,,,,,205
1,B,Raw,125,M,Sergey Fedorov,Сергей Федоров,1983-10-23,Open,124.95,,,,,,237.5,245,,,245,,,,,,245
2,B,Raw,125,M,Sergey Luchenkov,Сергей Лученков,1977-05-24,Open,124.9,,,,,,220,230,232.5,,232.5,,,,,,232.5
3,B,Raw,125,M,Vitaliy Belyakov,Виталий Беляков,1983-07-10,Open,121.8,,,,,,220,230,-240,,230,,,,,,230
4,B,Raw,125,M,Sergey Penzyakov,Сергей Пензяков,1974-09-23,Open,118.85,,,,,,200,210,-215,,210,,,,,,210
1,B,Raw,140,M,Nikolay Ivanov,Николай Иванов,1972-02-19,Masters 40-49,138.85,,,,,,150,-160,-160,,150,,,,,,150
1,B,Raw,140,M,Sergey Laskavyy,Сергей Ласкавый,1974-10-02,Open,126.45,,,,,,180,190,-200,,190,,,,,,190
1,B,Raw,140+,M,Artem Fadeev,Артем Фадеев,1979-11-11,Open,153,,,,,,230,,,,230,,,,,,230
1,B,Multi-ply,67.5,F,Natalya Shvachko,Наталья Швачко,1990-03-01,Junior,65.7,,,,,,110,-115,-115,,110,,,,,,110
1,B,Multi-ply,56,M,Dmitriy Perminov,Дмитрий Перминов,1998-08-09,Teen 14-15,55,,,,,,90,100,-107.5,,100,,,,,,100
1,B,Multi-ply,60,M,Semen Paley,Семен Палей,1999-04-14,Teen 14-15,59.8,,,,,,100,107.5,-110,112.5,107.5,,,,,,107.5
1,B,Multi-ply,67.5,M,Dmitriy Ovsyannikov,Дмитрий Овсянников,1981-07-24,Open,63.6,,,,,,125,135,150,,150,,,,,,150
1,B,Multi-ply,82.5,M,Sergey Koshkin,Сергей Кошкин,1971-09-28,Masters 40-49,81.6,,,,,,250,-260,,,250,,,,,,250
1,B,Multi-ply,82.5,M,Sergey Koshkin,Сергей Кошкин,1971-09-28,Open,81.6,,,,,,250,-260,,,250,,,,,,250
2,B,Multi-ply,82.5,M,Andrey Veselov,Андрей Веселов,1975-11-11,Open,80.2,,,,,,200,215,-227.5,,215,,,,,,215
1,B,Multi-ply,82.5,M,Dmitriy Rastorguev,Дмитрий Расторгуев,1993-12-18,Teen 18-19,82,,,,,,175,195,,,195,,,,,,195
1,B,Multi-ply,90,M,Sergey Talalaev,Сергей Талалаев,1968-09-07,Masters 40-49,89.8,,,,,,-200,205,-215,,205,,,,,,205
1,B,Multi-ply,90,M,Denis Lenkov,Денис Леньков,1982-03-10,Open,88.7,,,,,,220,-225,,,220,,,,,,220
2,B,Multi-ply,90,M,Dmitriy Krutko,Дмитрий Крутько,1989-07-24,Open,82.6,,,,,,210,-225,-225,,210,,,,,,210
1,B,Multi-ply,100,M,Aleksey Kunichkin,Алексей Куничкин,1973-04-25,Masters 40-49,99.9,,,,,,160,190,-200,,190,,,,,,190
1,B,Multi-ply,100,M,Aleksandr Prozorov,Александр Прозоров,1973-12-12,Open,99.95,,,,,,215,222.5,-230,,222.5,,,,,,222.5
1,B,Multi-ply,110,M,Igor Babushkin,Игорь Бабушкин,1963-10-25,Masters 40-49,109.95,,,,,,180,190,200,,200,,,,,,200
DQ,B,Multi-ply,110,M,Vyacheslav Rakhmanov,Вячеслав Рахманов,1968-09-10,Masters 40-49,108,,,,,,-240,,,,,,,,,,
1,B,Multi-ply,110,M,Andrey Paley,Андрей Палей,1961-10-11,Masters 50-59,109,,,,,,300,317.5,-325,,317.5,,,,,,317.5
1,B,Multi-ply,110,M,Andrey Paley,Андрей Палей,1961-10-11,Open,109,,,,,,300,317.5,-325,,317.5,,,,,,317.5
2,B,Multi-ply,110,M,Aleksandr Sykmenev,Александр Сыкменев,1978-06-24,Open,109.7,,,,,,300,-317.5,-322.5,,300,,,,,,300
DQ,B,Multi-ply,110,M,Aleksandr Tarasov,Александр Тарасов,1980-05-28,Open,102.25,,,,,,-210,-225,-225,,,,,,,,
1,B,Multi-ply,125,M,Ugo Chaves,Уго Чавес,1981-01-04,Open,124.95,,,,,,-320,335,360,,360,,,,,,360
2,B,Multi-ply,125,M,Aleksey Shlykov,Алексей Шлыков,1984-08-13,Open,119.15,,,,,,260,,,,260,,,,,,260
1,B,Multi-ply,140,M,Vladimir Glotov,Владимир Глотов,1975-07-22,Open,135.1,,,,,,-280,280,-300,-300,280,,,,,,280
