Place,Name,BirthYear,Sex,BodyweightKg,Squat1Kg,Squat2Kg,Squat3Kg,Best3SquatKg,Bench1Kg,Bench2Kg,Bench3Kg,Best3BenchKg,Deadlift1Kg,Deadlift2Kg,Deadlift3Kg,Best3DeadliftKg,TotalKg,Equipment,WeightClassKg,Event
1,Katherine Torre,1985,F,52.1,90,95,97.5,97.5,52.5,-57.5,57.5,57.5,110,117.5,-125,117.5,272.5,Raw,53,SBD
1,Sarah Humphreys,1982,F,80.55,107.5,115,-122.5,115,47.5,55,-60,55,125,132.5,140,140,310,Raw,84,SBD
1,Hsin Feng Hsieh,1990,M,67.4,130,-135,-140,130,85,-90,-90,85,-170,170,-175,170,385,Raw,69,SBD
1,Evan Wilkinson,1992,M,104.2,212.5,225,-235,225,145,-155,155,155,225,245,255,255,635,Raw,105,SBD
1,Lauren Croft,1987,F,71.25,,,,,72.5,77.5,-82.5,77.5,,,,,77.5,Raw,72,B
