Place,Sex,Name,Event,Division,WeightClassKg,Equipment,BodyweightKg,Squat1Kg,Squat2Kg,Squat3Kg,Best3SquatKg,Bench1Kg,Bench2Kg,Bench3Kg,Best3BenchKg,Deadlift1Kg,Deadlift2Kg,Deadlift3Kg,Best3DeadliftKg,TotalKg,BirthYear
1,M,Gary Schelbrack,B,R-M3a,120,Raw,113.5,,,,,152.5,160,165,165,,,,,165,1953
1,F,Colleen McGuire,BD,R-SO,84+,Raw,100.6,,,,,35,40,42.5,42.5,92.5,100,107.5,107.5,150,
1,F,Crystal Liu Dangtian,B,R-O,52,Raw,51.2,,,,,55,-60,-60,55,,,,,55,
1,F,Colleen McGuire,BD,R-O,84+,Raw,100.6,,,,,35,40,42.5,42.5,92.5,100,107.5,107.5,150,
1,M,Craig Buck,D,M3a,83,Single-ply,81,,,,,,,,,137.5,-142.5,142.5,142.5,142.5,1952
1,M,Hudson Lonborg,SBD,R-T2,120+,Raw,154,-215,215,227.5,227.5,137.5,150,-155,150,250,275,-290,275,652.5,1997
1,M,Long Pham,SBD,R-T3,74,Raw,73,112.5,122.5,127.5,127.5,72.5,77.5,-82.5,77.5,167.5,182.5,-187.5,182.5,387.5,
1,M,Emilio Juarez,SBD,R-T3,83,Raw,81.4,127.5,137.5,147.5,147.5,100,105,110,110,137.5,147.5,160,160,417.5,1997
1,M,Christian Giron,SBD,R-JR,74,Raw,72.4,155,165,175,175,105,112.5,-125,112.5,205,-217.5,232.5,232.5,520,
1,M,Mike Sedy,SBD,R-JR,83,Raw,80.7,215,-227.5,227.5,227.5,125,-132.5,-132.5,125,225,237.5,-245,237.5,590,1994
2,M,Jaris Beasley,SBD,R-JR,83,Raw,81.6,167.5,182.5,190,190,125,-137.5,-137.5,125,205,220,230,230,545,
3,M,Daniel Harer,SBD,R-JR,83,Raw,79.7,122.5,135,142.5,142.5,70,85,-92.5,85,160,182.5,192.5,192.5,420,
4,M,Tutti Tushigt Iveelt,SBD,R-JR,83,Raw,79.1,125,132.5,142.5,142.5,87.5,-92.5,95,95,137.5,152.5,-160,152.5,390,
1,M,Andrew Stephenson,SBD,O,120,Single-ply,112.4,205,237.5,250,250,182.5,205,-215,205,237.5,255,272.5,272.5,727.5,1999
1,M,Andrew Schendel,SBD,R-O,83,Raw,82.8,157.5,175,,175,132.5,142.5,155,155,270,292.5,-312.5,292.5,622.5,
2,M,Justin Tam,SBD,R-O,83,Raw,83,182.5,197.5,202.5,202.5,135,142.5,-147.5,142.5,227.5,245,-252.5,245,590,
3,M,Chris LaCour,SBD,R-O,83,Raw,81.6,182.5,190,-197.5,190,150,160,-165,160,192.5,200,210,210,560,
4,M,Kelso Wilkins,SBD,R-O,83,Raw,81.4,187.5,197.5,-212.5,197.5,125,-137.5,-137.5,125,200,215,-227.5,215,537.5,
1,M,Ken Creta,SBD,R-O,93,Raw,88.8,192.5,-215,215,215,142.5,150,-155,150,245,265,-272.5,265,630,1968
2,M,Ryan McCoy,SBD,R-O,93,Raw,92.1,195,-212.5,215,215,125,140,147.5,147.5,205,220,235,235,597.5,
3,M,Josh Wenger,SB,R-O,93,Raw,87.1,157.5,182.5,-197.5,182.5,95,102.5,-112.5,102.5,,,,,285,
1,M,Cam Leslie,SBD,R-O,105,Raw,101.3,165,-175,175,175,102.5,115,-125,115,187.5,205,217.5,217.5,507.5,1985
1,M,Douglas McCadden,SBD,R-O,120,Raw,107,-185,185,200,200,92.5,97.5,-102.5,97.5,212.5,-227.5,-227.5,212.5,510,
1,M,John Anderson,SBD,R-M1a,83,Raw,83,115,132.5,142.5,142.5,87.5,102.5,-110,102.5,127.5,145,-155,145,390,
2,M,Karmen Eng,SBD,R-M1a,83,Raw,80.1,82.5,92.5,107.5,107.5,80,90,100,100,125,137.5,155,155,362.5,
1,M,Jim Berrios,SBD,R-M2b,93,Raw,91.5,-182.5,182.5,202.5,202.5,-122.5,122.5,-130,122.5,157.5,-185,-185,157.5,482.5,1959
1,M,Jack Rankin,SBD,R-M3b,83,Raw,81.7,137.5,147.5,-152.5,147.5,62.5,67.5,70,70,175,182.5,187.5,187.5,405,1947
1,M,Alan Tepper,SBD,R-M4a,83,Raw,81.3,147.5,157.5,162.5,162.5,105,112.5,115,115,200,207.5,212.5,212.5,490,1945
1,M,Bob Harper,SBD,R-M4a,93,Raw,84.5,102.5,110,117.5,117.5,82.5,87.5,-90,87.5,185,197.5,202.5,202.5,407.5,
1,M,Robert Gilmore,SBD,R-M5,105,Raw,96.3,47.5,55,60,60,70,-82.5,82.5,82.5,70,92.5,,92.5,235,1935
1,F,Persis Mayyer,SBD,R-T3,63,Raw,62.4,95,-105,-105,95,62.5,67.5,-70,67.5,115,125,-130,125,287.5,
1,F,Hailey Doty,SBD,R-JR,47,Raw,46.4,-62.5,62.5,-65,62.5,25,,,25,95,97.5,102.5,102.5,190,
1,F,Hailey Doty,SBD,R-JR,47,Raw,46.4,-62.5,62.5,-65,62.5,25,,,25,95,97.5,102.5,102.5,190,
1,F,Ava Connolly,SBD,R-JR,63,Raw,58.6,77.5,-95,95,95,42.5,47.5,-57.5,47.5,92.5,97.5,105,105,247.5,
1,F,Hailey Doty,SBD,R-O,47,Raw,46.4,-62.5,62.5,-65,62.5,25,,,25,95,97.5,102.5,102.5,190,
1,F,Hailey Doty,SBD,R-O,47,Raw,46.4,-62.5,62.5,-65,62.5,25,,,25,95,97.5,102.5,102.5,190,
1,F,Marcelle Davis-Ford,SBD,R-O,52,Raw,51.6,80,-85,85,85,55,57.5,60,60,105,110,-115,110,255,
1,F,Lori Sharon,SBD,R-O,72,Raw,67,100,105,-112.5,105,67.5,70,-75,70,135,145,150,150,325,1983
1,F,Lori Sharon,SBD,R-O,72,Raw,67,100,105,-112.5,105,67.5,70,-75,70,135,145,150,150,325,1983
1,F,Lori Sharon,SBD,R-O,72,Raw,67,100,105,-112.5,105,67.5,70,-75,70,135,145,150,150,325,1983
2,F,Maria Altamirano,SBD,R-O,72,Raw,70,-102.5,110,115,115,55,57.5,60,60,112.5,117.5,-125,117.5,292.5,1988
3,F,Jamie Mondejar,SBD,R-O,72,Raw,67,75,85,97.5,97.5,40,-50,50,50,100,115,-125,115,262.5,1980
4,F,Caitlin Honn,SBD,R-O,72,Raw,67.4,55,60,70,70,35,-45,-45,35,82.5,92.5,-105,92.5,197.5,
1,F,Lisa Luraghi,SBD,R-M1a,63,Raw,62,92.5,-100,-100,92.5,55,60,65,65,105,115,-120,115,272.5,1974
1,F,Regina White,SBD,R-M1a,84+,Raw,86.2,105,115,125,125,55,60,-70,60,125,142.5,-150,142.5,327.5,1975
1,F,Marcelle Davis-Ford,SBD,R-M1b,52,Raw,51.6,80,-85,85,85,55,57.5,60,60,105,110,-115,110,255,
1,F,Colleen McGuire,BD,R-SO,84+,Raw,100.6,,,,,35,40,42.5,42.5,92.5,100,107.5,107.5,150,
1,F,Colleen McGuire,BD,R-O,84+,Raw,100.6,,,,,35,40,42.5,42.5,92.5,100,107.5,107.5,150,
